matrix_w,matrix_h:0,900594602159211;matrix_w,samples:0,900594602159211;matrix_w,extechWatt:0,902607381530902;matrix_w,completionTime:0,587854626851255;matrix_h,samples:1;matrix_h,extechWatt:0,967189441076571;matrix_h,completionTime:0,446878260793644;samples,extechWatt:0,967189441076571;samples,completionTime:0,446878260793644;
matrix_w,matrix_h:0,900594602159211;matrix_w,samples:0,900594602159211;matrix_w,extechWatt:0,907040836193638;matrix_w,completionTime:0,686588290825837;matrix_h,samples:1;matrix_h,extechWatt:0,966971476431576;matrix_h,completionTime:0,638580473376703;filter_size,completionTime:+Infinito;samples,extechWatt:0,966971476431576;samples,completionTime:0,638580473376703;extechWatt,completionTime:0,519127078494622;
matrix_w,matrix_h:0,900594602159211;matrix_w,samples:0,900594602159211;matrix_w,extechWatt:0,854647716757424;matrix_w,gpuBusy_1:0,904600396888961;matrix_w,waveFronts_1:0,414188257001152;matrix_w,fetchUnitBusy_1:0,409035218230366;matrix_w,fetchUnitStalled_1:0,414411412337609;matrix_w,fetchSize_1:0,531841164034038;matrix_w,fastPath_1:0,414188257001152;matrix_h,samples:1;matrix_h,extechWatt:0,938112668972852;matrix_h,gpuBusy_1:0,756629170134202;matrix_h,waveFronts_1:0,415535271206466;matrix_h,fetchUnitStalled_1:0,415594206922721;matrix_h,fetchSize_1:0,500755989895631;matrix_h,fastPath_1:0,415535271206466;samples,extechWatt:0,938112668972852;samples,gpuBusy_1:0,756629170134202;samples,waveFronts_1:0,415535271206466;samples,fetchUnitStalled_1:0,415594206922721;samples,fetchSize_1:0,500755989895631;samples,fastPath_1:0,415535271206466;extechWatt,gpuBusy_1:0,82521860763891;extechWatt,aluPacking_1:+Infinito;extechWatt,pathUtil_1:+Infinito;completionTime,aluInsts_1:+Infinito;completionTime,aluPacking_1:-Infinito;completionTime,cacheHit_1:0,530035052747084;completionTime,pathUtil_1:+Infinito;gpuBusy_1,AluBusy_1:-0,464349993043353;gpuBusy_1,cacheHit_1:-0,400562936422904;waveFronts_1,AluBusy_1:0,845454692640969;waveFronts_1,aluPacking_1:0,917334799720246;waveFronts_1,fetchUnitBusy_1:0,834272561708928;waveFronts_1,fetchUnitStalled_1:0,99999763550801;waveFronts_1,fetchSize_1:0,886796350158343;waveFronts_1,fastPath_1:1;AluBusy_1,aluPacking_1:0,971815582264541;AluBusy_1,fetchUnitBusy_1:0,603321563465413;AluBusy_1,fetchUnitStalled_1:0,845576576181089;AluBusy_1,fetchSize_1:0,698831820235832;AluBusy_1,fastPath_1:0,845454692640969;aluPacking_1,fetchUnitBusy_1:0,774319854063551;aluPacking_1,fetchUnitStalled_1:0,917162529816567;aluPacking_1,fetchSize_1:0,734417089151959;aluPacking_1,fastPath_1:0,917334799720245;fetchUnitBusy_1,fetchUnitStalled_1:0,833362985124133;fetchUnitBusy_1,fetchSize_1:0,608843579452214;fetchUnitBusy_1,fastPath_1:0,834272561708928;fetchUnitStalled_1,fetchSize_1:0,887591567879203;fetchUnitStalled_1,fastPath_1:0,99999763550801;fetchSize_1,fastPath_1:0,886796350158343;
matrix_w,matrix_h:0,900594602159211;matrix_w,samples:0,900594602159211;matrix_w,extechWatt:0,733676136954584;matrix_w,gpuBusy_1:0,524593075732014;matrix_w,waveFronts_1:0,554568188001836;matrix_w,AluBusy_1:0,786574237067502;matrix_w,aluPacking_1:-0,58162508111474;matrix_w,fetchUnitBusy_1:-0,635118701895502;matrix_w,fetchUnitStalled_1:0,555542736783158;matrix_w,fetchSize_1:0,525210823936269;matrix_w,cacheHit_1:0,528096877992441;matrix_w,fastPath_1:0,554545430107585;matrix_h,samples:1;matrix_h,extechWatt:0,901101416461074;matrix_h,AluBusy_1:0,685954192416443;matrix_h,aluPacking_1:-0,534903361956589;matrix_h,fetchUnitBusy_1:-0,577237021939324;matrix_h,fetchSize_1:0,492370749180165;matrix_h,cacheHit_1:0,475095030017928;samples,extechWatt:0,901101416461074;samples,AluBusy_1:0,685954192416443;samples,aluPacking_1:-0,534903361956589;samples,fetchUnitBusy_1:-0,577237021939324;samples,fetchSize_1:0,492370749180165;samples,cacheHit_1:0,475095030017928;extechWatt,aluInsts_1:+Infinito;extechWatt,fetchInsts_1:+Infinito;extechWatt,AluBusy_1:0,43263409504414;completionTime,gpuBusy_1:0,50716885078243;completionTime,aluInsts_1:-Infinito;completionTime,fetchInsts_1:-Infinito;completionTime,waveFronts_1:0,530307913730598;completionTime,AluBusy_1:0,536742492133929;completionTime,aluFetchRatio_1:-Infinito;completionTime,aluPacking_1:-0,527228758224403;completionTime,fetchUnitBusy_1:-0,542304419067966;completionTime,fetchUnitStalled_1:0,528593411353333;completionTime,fetchSize_1:0,620710982475481;completionTime,cacheHit_1:0,516882186965148;completionTime,fastPath_1:0,53028071108221;gpuBusy_1,waveFronts_1:0,9956538698983;gpuBusy_1,AluBusy_1:0,806322369645673;gpuBusy_1,aluPacking_1:-0,843834264270023;gpuBusy_1,fetchUnitBusy_1:-0,854546569900356;gpuBusy_1,fetchUnitStalled_1:0,995497668677503;gpuBusy_1,fetchSize_1:0,850249371223645;gpuBusy_1,cacheHit_1:0,765458448318283;gpuBusy_1,fastPath_1:0,995659773587076;waveFronts_1,AluBusy_1:0,822590879512744;waveFronts_1,aluPacking_1:-0,842362011960969;waveFronts_1,fetchUnitBusy_1:-0,856712266201469;waveFronts_1,fetchUnitStalled_1:0,999992503054244;waveFronts_1,fetchSize_1:0,842906191435467;waveFronts_1,cacheHit_1:0,760981754409779;waveFronts_1,fastPath_1:0,999999996395604;AluBusy_1,aluPacking_1:-0,873073420153099;AluBusy_1,fetchUnitBusy_1:-0,914907654118693;AluBusy_1,fetchUnitStalled_1:0,823377291519438;AluBusy_1,fetchSize_1:0,909204663595487;AluBusy_1,cacheHit_1:0,907230058847043;AluBusy_1,fastPath_1:0,822595835606846;aluPacking_1,fetchUnitBusy_1:0,99554889891379;aluPacking_1,fetchUnitStalled_1:-0,842044166016638;aluPacking_1,fetchSize_1:-0,883409403441774;aluPacking_1,cacheHit_1:-0,823984136694417;aluPacking_1,fastPath_1:-0,842381774099898;fetchUnitBusy_1,fetchUnitStalled_1:-0,85658771368022;fetchUnitBusy_1,fetchSize_1:-0,904512496396782;fetchUnitBusy_1,cacheHit_1:-0,853417576092233;fetchUnitBusy_1,fastPath_1:-0,856729204892904;fetchUnitStalled_1,fetchSize_1:0,842735550349506;fetchUnitStalled_1,cacheHit_1:0,761464243306577;fetchUnitStalled_1,fastPath_1:0,999992466771291;fetchSize_1,cacheHit_1:0,975748574727371;fetchSize_1,fastPath_1:0,842927302536875;fetchSize_1,pathUtil_1:+Infinito;cacheHit_1,fastPath_1:0,761005390214635;
matrix_w,matrix_h:0,900594602159211;matrix_w,samples:0,900594602159211;matrix_w,extechWatt:0,746586100525562;matrix_w,gpuBusy_1:0,637281367601944;matrix_w,waveFronts_1:0,565106794694497;matrix_w,AluBusy_1:0,658508418153341;matrix_w,aluPacking_1:0,757246649903245;matrix_w,fetchUnitBusy_1:0,978569033881797;matrix_w,fetchUnitStalled_1:0,565955201702992;matrix_w,fetchSize_1:0,517686662765127;matrix_w,cacheHit_1:0,446655484949371;matrix_w,fastPath_1:0,565119976929066;matrix_h,samples:1;matrix_h,extechWatt:0,908298182154102;matrix_h,gpuBusy_1:0,456349828376411;matrix_h,AluBusy_1:0,601816378909658;matrix_h,aluPacking_1:0,696196425758601;matrix_h,fetchUnitBusy_1:0,916728443492083;matrix_h,fetchSize_1:0,485726777116833;filter_size,completionTime:+Infinito;samples,extechWatt:0,908298182154102;samples,gpuBusy_1:0,456349828376411;samples,AluBusy_1:0,601816378909658;samples,aluPacking_1:0,696196425758601;samples,fetchUnitBusy_1:0,916728443492083;samples,fetchSize_1:0,485726777116833;extechWatt,fetchInsts_1:+Infinito;extechWatt,aluPacking_1:0,474893033717755;extechWatt,fetchUnitBusy_1:0,816997702799013;completionTime,gpuBusy_1:0,627417531771945;completionTime,aluInsts_1:+Infinito;completionTime,fetchInsts_1:+Infinito;completionTime,waveFronts_1:0,725012624946057;completionTime,aluFetchRatio_1:+Infinito;completionTime,aluPacking_1:+Infinito;completionTime,fetchUnitStalled_1:0,725020171152341;completionTime,fetchSize_1:0,472847258293076;completionTime,fastPath_1:0,724994889787185;completionTime,pathUtil_1:+Infinito;gpuBusy_1,waveFronts_1:0,973576468340429;gpuBusy_1,AluBusy_1:0,766290354929534;gpuBusy_1,aluPacking_1:0,768728735321128;gpuBusy_1,fetchUnitBusy_1:0,515465052483086;gpuBusy_1,fetchUnitStalled_1:0,973450255158611;gpuBusy_1,fetchSize_1:0,813391348592538;gpuBusy_1,cacheHit_1:0,679069467462663;gpuBusy_1,fastPath_1:0,973587000102582;waveFronts_1,AluBusy_1:0,743062212924851;waveFronts_1,aluFetchRatio_1:+Infinito;waveFronts_1,aluPacking_1:+Infinito;waveFronts_1,aluPacking_1:0,736572942420435;waveFronts_1,fetchUnitBusy_1:0,451614281784184;waveFronts_1,fetchUnitStalled_1:0,999992193486086;waveFronts_1,fetchSize_1:0,793916343712244;waveFronts_1,cacheHit_1:0,669406829279952;waveFronts_1,fastPath_1:0,999999997784247;AluBusy_1,aluPacking_1:0,98956437214197;AluBusy_1,fetchUnitBusy_1:0,574828213660678;AluBusy_1,fetchUnitStalled_1:0,743128056000714;AluBusy_1,fetchSize_1:0,952192984109177;AluBusy_1,cacheHit_1:0,936696083228798;AluBusy_1,fastPath_1:0,743067433037335;aluFetchRatio_1,fetchUnitBusy_1:-Infinito;aluPacking_1,fetchUnitBusy_1:0,686621160346205;aluPacking_1,fetchUnitStalled_1:0,736745137535749;aluPacking_1,fetchSize_1:0,918054798275795;aluPacking_1,cacheHit_1:0,891366733581958;aluPacking_1,fastPath_1:0,73657915035904;fetchUnitBusy_1,fetchUnitStalled_1:0,452170065310935;fetchUnitBusy_1,fetchSize_1:0,414590895173797;fetchUnitBusy_1,fastPath_1:0,451622145545147;fetchUnitStalled_1,fetchSize_1:0,793373835913536;fetchUnitStalled_1,cacheHit_1:0,669696558292553;fetchUnitStalled_1,fastPath_1:0,999992248711752;fetchSize_1,cacheHit_1:0,954400744047926;fetchSize_1,fastPath_1:0,793925121611094;cacheHit_1,fastPath_1:0,669419518410149;
matrix_w,matrix_h:0,900594602159211;matrix_w,samples:0,900594602159211;matrix_w,extechWatt:0,836837626726904;matrix_w,completionTime:0,75961496422772;matrix_w,gpuBusy_2:0,912650141198118;matrix_w,waveFronts_2:0,475537990335502;matrix_w,fetchUnitBusy_2:0,784853315560642;matrix_w,fetchUnitStalled_2:0,533797761463261;matrix_w,fetchSize_2:-0,463845488102163;matrix_w,cacheHit_2:0,687078037562211;matrix_w,fastPath_2:0,475537990335502;matrix_h,samples:1;matrix_h,extechWatt:0,922446193800651;matrix_h,completionTime:0,711278478902076;matrix_h,gpuBusy_2:0,766504331456959;matrix_h,waveFronts_2:0,618870939093309;matrix_h,fetchUnitBusy_2:0,50268646836996;matrix_h,fetchUnitStalled_2:0,674564554465226;matrix_h,fetchSize_2:-0,423588049919703;matrix_h,cacheHit_2:0,577380619883959;matrix_h,fastPath_2:0,618870939093309;filter_size,completionTime:+Infinito;samples,extechWatt:0,922446193800651;samples,completionTime:0,711278478902076;samples,gpuBusy_2:0,766504331456959;samples,waveFronts_2:0,618870939093309;samples,fetchUnitBusy_2:0,50268646836996;samples,fetchUnitStalled_2:0,674564554465226;samples,fetchSize_2:-0,423588049919703;samples,cacheHit_2:0,577380619883959;samples,fastPath_2:0,618870939093309;extechWatt,completionTime:0,48195518550118;extechWatt,gpuBusy_2:0,598187144715764;extechWatt,fetchUnitBusy_2:0,49086218646177;extechWatt,fetchUnitStalled_2:0,412491671163292;extechWatt,fetchSize_2:-0,598288396267486;completionTime,gpuBusy_2:0,840423807478814;completionTime,aluInsts_2:+Infinito;completionTime,waveFronts_2:0,532641591911078;completionTime,AluBusy_2:0,58537474597839;completionTime,aluPacking_2:+Infinito;completionTime,aluPacking_2:0,617916435932566;completionTime,fetchUnitBusy_2:0,537691715228529;completionTime,fetchUnitStalled_2:0,556852706963899;completionTime,cacheHit_2:0,563751455505338;completionTime,fastPath_2:0,532641591911078;completionTime,pathUtil_2:+Infinito;gpuBusy_2,waveFronts_2:0,488892931068679;gpuBusy_2,AluBusy_2:0,585360602152198;gpuBusy_2,aluPacking_2:0,630115075190724;gpuBusy_2,fetchUnitBusy_2:0,724088895759912;gpuBusy_2,fetchUnitStalled_2:0,526597244063355;gpuBusy_2,cacheHit_2:0,673188070812331;gpuBusy_2,fastPath_2:0,488892931068679;fetchInsts_2,wrInsts_2:0,999999999999999;fetchInsts_2,waveFronts_2:-0,510878777820369;fetchInsts_2,aluFetchRatio_2:-0,677185321072396;fetchInsts_2,aluPacking_2:+Infinito;fetchInsts_2,fetchUnitStalled_2:-0,520601363392731;fetchInsts_2,fastPath_2:-0,510878777820369;fetchInsts_2,pathUtil_2:+Infinito;wrInsts_2,waveFronts_2:-0,510878749290433;wrInsts_2,aluFetchRatio_2:-0,677185302514605;wrInsts_2,fetchUnitStalled_2:-0,520601336515743;wrInsts_2,fastPath_2:-0,510878749290433;waveFronts_2,AluBusy_2:0,411903531911956;waveFronts_2,aluFetchRatio_2:0,657146834624398;waveFronts_2,aluPacking_2:0,424619222953282;waveFronts_2,fetchUnitStalled_2:0,996966050975034;waveFronts_2,cacheHit_2:0,759646094635187;waveFronts_2,fastPath_2:1;AluBusy_2,aluPacking_2:0,997857014559356;AluBusy_2,fetchSize_2:0,693450172872046;AluBusy_2,fastPath_2:0,411903531911956;aluFetchRatio_2,fetchUnitStalled_2:0,640192640293938;aluFetchRatio_2,fastPath_2:0,657146834624398;aluPacking_2,fetchUnitStalled_2:0,407425981091699;aluPacking_2,fetchSize_2:0,656273084550929;aluPacking_2,fastPath_2:0,424619222953282;aluPacking_2,pathUtil_2:-Infinito;fetchUnitBusy_2,fetchSize_2:-0,521091366807837;fetchUnitBusy_2,cacheHit_2:0,753827944151346;fetchUnitStalled_2,cacheHit_2:0,776941843190087;fetchUnitStalled_2,fastPath_2:0,996966050975034;cacheHit_2,fastPath_2:0,759646094635187;
matrix_w,matrix_h:0,900594602159211;matrix_w,samples:0,900594602159211;matrix_w,extechWatt:0,759968663760775;matrix_w,completionTime:0,900092726117541;matrix_w,gpuBusy_2:0,805365863034493;matrix_w,waveFronts_2:0,631987123194816;matrix_w,fetchUnitBusy_2:0,96994896478545;matrix_w,fetchUnitStalled_2:0,698453287912955;matrix_w,fetchSize_2:-0,464620583842149;matrix_w,cacheHit_2:0,890239644636727;matrix_w,fastPath_2:0,632362946360139;matrix_h,samples:1;matrix_h,extechWatt:0,916093668101277;matrix_h,completionTime:0,829458943035891;matrix_h,gpuBusy_2:0,657549131039457;matrix_h,waveFronts_2:0,676378778508849;matrix_h,fetchUnitBusy_2:0,914575815757607;matrix_h,fetchUnitStalled_2:0,74436085204885;matrix_h,fetchSize_2:-0,423554043032365;matrix_h,cacheHit_2:0,830049731188512;matrix_h,fastPath_2:0,676779110414305;samples,extechWatt:0,916093668101277;samples,completionTime:0,829458943035891;samples,gpuBusy_2:0,657549131039457;samples,waveFronts_2:0,676378778508849;samples,fetchUnitBusy_2:0,914575815757607;samples,fetchUnitStalled_2:0,74436085204885;samples,fetchSize_2:-0,423554043032365;samples,cacheHit_2:0,830049731188512;samples,fastPath_2:0,676779110414305;extechWatt,completionTime:0,605965423244596;extechWatt,aluInsts_2:+Infinito;extechWatt,waveFronts_2:0,486891175764255;extechWatt,aluPacking_2:+Infinito;extechWatt,fetchUnitBusy_2:0,732530011143563;extechWatt,fetchUnitStalled_2:0,571198935274801;extechWatt,fetchSize_2:-0,524285554306302;extechWatt,cacheHit_2:0,582281038844217;extechWatt,fastPath_2:0,487368776513871;extechWatt,pathUtil_2:+Infinito;completionTime,gpuBusy_2:0,906152006572982;completionTime,fetchInsts_2:0,408752783605419;completionTime,wrInsts_2:0,408752643420897;completionTime,waveFronts_2:0,737169519604172;completionTime,aluPacking_2:+Infinito;completionTime,fetchUnitBusy_2:0,931454422880362;completionTime,fetchUnitStalled_2:0,774810918340635;completionTime,cacheHit_2:0,965283965921354;completionTime,fastPath_2:0,737403121374018;completionTime,pathUtil_2:+Infinito;gpuBusy_2,fetchInsts_2:0,500764375630647;gpuBusy_2,wrInsts_2:0,5007642463873;gpuBusy_2,waveFronts_2:0,74466505936684;gpuBusy_2,aluPacking_2:0,541813427385956;gpuBusy_2,fetchUnitBusy_2:0,843271605918623;gpuBusy_2,fetchUnitStalled_2:0,752766317853715;gpuBusy_2,cacheHit_2:0,917049749221012;gpuBusy_2,fastPath_2:0,744738939475987;fetchInsts_2,wrInsts_2:0,99999999999998;fetchInsts_2,AluBusy_2:0,427427960118718;fetchInsts_2,aluFetchRatio_2:-0,692552038067706;fetchInsts_2,aluPacking_2:0,496546978407126;wrInsts_2,AluBusy_2:0,427427912902652;wrInsts_2,aluFetchRatio_2:-0,692552068098219;wrInsts_2,aluPacking_2:0,496546896807869;waveFronts_2,fetchUnitBusy_2:0,664613174193296;waveFronts_2,fetchUnitStalled_2:0,994384675643497;waveFronts_2,cacheHit_2:0,808526377198668;waveFronts_2,fastPath_2:0,999999836192492;AluBusy_2,aluPacking_2:0,953807471556538;AluBusy_2,fetchSize_2:0,753120135897773;aluFetchRatio_2,aluPacking_2:+Infinito;aluFetchRatio_2,pathUtil_2:+Infinito;aluPacking_2,fetchSize_2:0,582842343340839;fetchUnitBusy_2,fetchUnitStalled_2:0,723541913717315;fetchUnitBusy_2,fetchSize_2:-0,445725028426094;fetchUnitBusy_2,cacheHit_2:0,936193475203047;fetchUnitBusy_2,fastPath_2:0,664960077184156;fetchUnitStalled_2,cacheHit_2:0,839413172365846;fetchUnitStalled_2,fastPath_2:0,994444715941441;cacheHit_2,fastPath_2:0,808721313610081;
matrix_w,matrix_h:0,900594602159211;matrix_w,samples:0,900594602159211;matrix_w,extechWatt:0,699315091823709;matrix_w,completionTime:0,961662254761081;matrix_w,gpuBusy_2:0,69408794451023;matrix_w,waveFronts_2:0,537004996813587;matrix_w,AluBusy_2:0,578795304136433;matrix_w,aluPacking_2:0,613547859581305;matrix_w,fetchUnitBusy_2:0,959777529617164;matrix_w,fetchUnitStalled_2:0,594415813251009;matrix_w,fetchSize_2:-0,467729544692122;matrix_w,cacheHit_2:0,844319110010355;matrix_w,fastPath_2:0,537010460625404;matrix_h,samples:1;matrix_h,extechWatt:0,882004805162147;matrix_h,completionTime:0,885013337619218;matrix_h,gpuBusy_2:0,563453516570306;matrix_h,waveFronts_2:0,407548683433426;matrix_h,AluBusy_2:0,520754454642974;matrix_h,aluPacking_2:0,557148849535703;matrix_h,fetchUnitBusy_2:0,956666369823606;matrix_h,fetchUnitStalled_2:0,437328615691212;matrix_h,fetchSize_2:-0,426209888648874;matrix_h,cacheHit_2:0,83000969159588;matrix_h,fastPath_2:0,407550993247421;samples,extechWatt:0,882004805162147;samples,completionTime:0,885013337619218;samples,gpuBusy_2:0,563453516570306;samples,waveFronts_2:0,407548683433426;samples,AluBusy_2:0,520754454642974;samples,aluPacking_2:0,557148849535703;samples,fetchUnitBusy_2:0,956666369823606;samples,fetchUnitStalled_2:0,437328615691212;samples,fetchSize_2:-0,426209888648874;samples,cacheHit_2:0,83000969159588;samples,fastPath_2:0,407550993247421;extechWatt,completionTime:0,643075492242653;extechWatt,fetchUnitBusy_2:0,789402422199361;extechWatt,fetchSize_2:-0,501844220022374;extechWatt,cacheHit_2:0,545220940741611;completionTime,gpuBusy_2:0,710926359402161;completionTime,aluInsts_2:-Infinito;completionTime,waveFronts_2:0,624507591338045;completionTime,AluBusy_2:0,570012803020302;completionTime,aluPacking_2:-Infinito;completionTime,aluPacking_2:0,605264814120496;completionTime,fetchUnitBusy_2:0,965275602636892;completionTime,fetchUnitStalled_2:0,665246118321226;completionTime,fetchSize_2:-0,441959205895741;completionTime,cacheHit_2:0,933247109109301;completionTime,fastPath_2:0,624511330168602;gpuBusy_2,waveFronts_2:0,79823776757741;gpuBusy_2,AluBusy_2:0,918012938974649;gpuBusy_2,aluPacking_2:0,924462329095998;gpuBusy_2,fetchUnitBusy_2:0,616865585648659;gpuBusy_2,fetchUnitStalled_2:0,800409427090903;gpuBusy_2,cacheHit_2:0,745388294409691;gpuBusy_2,fastPath_2:0,798238025154971;fetchInsts_2,wrInsts_2:0,999999999999936;fetchInsts_2,aluFetchRatio_2:-0,92450604792654;fetchInsts_2,aluPacking_2:+Infinito;fetchInsts_2,fetchSize_2:-0,501835315502196;fetchInsts_2,pathUtil_2:+Infinito;wrInsts_2,aluFetchRatio_2:-0,924506043719657;wrInsts_2,aluPacking_2:-Infinito;wrInsts_2,fetchSize_2:-0,501835550069708;wrInsts_2,pathUtil_2:-Infinito;waveFronts_2,AluBusy_2:0,600324114072369;waveFronts_2,aluPacking_2:0,611076655175159;waveFronts_2,fetchUnitBusy_2:0,527003836948957;waveFronts_2,fetchUnitStalled_2:0,994106119821912;waveFronts_2,cacheHit_2:0,73305429111393;waveFronts_2,fastPath_2:0,999999999936006;AluBusy_2,aluPacking_2:0,998947163302629;AluBusy_2,fetchUnitBusy_2:0,51980605976599;AluBusy_2,fetchUnitStalled_2:0,590762354983987;AluBusy_2,fetchSize_2:0,426840166817468;AluBusy_2,cacheHit_2:0,60289702930384;AluBusy_2,fastPath_2:0,600323150515626;aluFetchRatio_2,fetchSize_2:0,512390119392254;aluPacking_2,fetchUnitBusy_2:0,55844809382011;aluPacking_2,fetchUnitStalled_2:0,603863600471901;aluPacking_2,cacheHit_2:0,634365187011895;aluPacking_2,fastPath_2:0,611075903297313;fetchUnitBusy_2,fetchUnitStalled_2:0,565640318295578;fetchUnitBusy_2,fetchSize_2:-0,481001861329612;fetchUnitBusy_2,cacheHit_2:0,912967927796258;fetchUnitBusy_2,fastPath_2:0,527007267762742;fetchUnitStalled_2,cacheHit_2:0,739221177220142;fetchUnitStalled_2,fastPath_2:0,994107326648013;cacheHit_2,fastPath_2:0,733054492232356;
matrix_w,matrix_h:0,900594602159211;matrix_w,samples:0,900594602159211;matrix_w,extechWatt:0,902868583299625;matrix_w,completionTime:0,586194371822338;matrix_h,samples:1;matrix_h,extechWatt:0,968654401795245;matrix_h,completionTime:0,593637938461125;filter_size,completionTime:-Infinito;samples,extechWatt:0,968654401795245;samples,completionTime:0,593637938461125;extechWatt,completionTime:0,517901596271008;
matrix_w,matrix_h:0,900594602159211;matrix_w,samples:0,900594602159211;matrix_w,extechWatt:0,904446045919626;matrix_w,completionTime:0,643254264237264;matrix_h,samples:1;matrix_h,extechWatt:0,968450923434654;matrix_h,completionTime:0,59075808225137;samples,extechWatt:0,968450923434654;samples,completionTime:0,59075808225137;extechWatt,completionTime:0,463155260440393;
matrix_w,matrix_h:0,900594602159211;matrix_w,samples:0,900594602159211;matrix_w,extechWatt:0,904521864275958;matrix_w,completionTime:0,665555321673871;matrix_h,samples:1;matrix_h,extechWatt:0,968508863102278;matrix_h,completionTime:0,57857920583384;samples,extechWatt:0,968508863102278;samples,completionTime:0,57857920583384;extechWatt,completionTime:0,494620583227274;
matrix_w,matrix_h:0,900594602159211;matrix_w,samples:0,900594602159211;matrix_w,extechWatt:0,768764108892202;matrix_w,completionTime:0,649499408185693;matrix_w,gpuBusy_1:0,843132417847359;matrix_w,waveFronts_1:0,777681418587927;matrix_w,fetchUnitBusy_1:0,440388986363883;matrix_w,fetchUnitStalled_1:0,778931767051528;matrix_w,fetchSize_1:0,585719842537594;matrix_w,fastPath_1:0,777681418587927;matrix_w,gpuBusy_2:0,731601703652394;matrix_w,waveFronts_2:0,546889124334555;matrix_w,AluBusy_2:0,713684988663191;matrix_w,aluPacking_2:0,740283825364718;matrix_w,fetchUnitBusy_2:0,888286715424649;matrix_w,fetchUnitStalled_2:0,600946043957795;matrix_w,fetchSize_2:-0,419834327519192;matrix_w,cacheHit_2:0,628007407335709;matrix_w,fastPath_2:0,546889124334555;matrix_h,samples:1;matrix_h,extechWatt:0,921262714486014;matrix_h,gpuBusy_1:0,621870402747686;matrix_h,waveFronts_1:0,629211273990849;matrix_h,fetchUnitStalled_1:0,629137529965251;matrix_h,fetchSize_1:0,557490078257711;matrix_h,fastPath_1:0,629211273990849;matrix_h,gpuBusy_2:0,605812254975215;matrix_h,waveFronts_2:0,430724085803914;matrix_h,AluBusy_2:0,663948491502056;matrix_h,aluPacking_2:0,680845819118531;matrix_h,fetchUnitBusy_2:0,681333519885027;matrix_h,fetchUnitStalled_2:0,461678961468727;matrix_h,cacheHit_2:0,633550113202302;matrix_h,fastPath_2:0,430724085803914;samples,extechWatt:0,921262714486014;samples,gpuBusy_1:0,621870402747686;samples,waveFronts_1:0,629211273990849;samples,fetchUnitStalled_1:0,629137529965251;samples,fetchSize_1:0,557490078257711;samples,fastPath_1:0,629211273990849;samples,gpuBusy_2:0,605812254975215;samples,waveFronts_2:0,430724085803914;samples,AluBusy_2:0,663948491502056;samples,aluPacking_2:0,680845819118531;samples,fetchUnitBusy_2:0,681333519885027;samples,fetchUnitStalled_2:0,461678961468727;samples,cacheHit_2:0,633550113202302;samples,fastPath_2:0,430724085803914;extechWatt,gpuBusy_1:0,539077094072259;extechWatt,AluBusy_2:0,422449623416311;extechWatt,aluPacking_2:0,43666204092431;extechWatt,fetchUnitBusy_2:0,49615068615272;extechWatt,fetchSize_2:-0,496907390147509;completionTime,gpuBusy_1:0,563042412838727;completionTime,waveFronts_1:0,764330318491834;completionTime,fetchUnitBusy_1:0,400773313714632;completionTime,fetchUnitStalled_1:0,766211576269081;completionTime,fetchSize_1:0,654871228589264;completionTime,fastPath_1:0,764330318491834;completionTime,gpuBusy_2:0,744202964439287;completionTime,waveFronts_2:0,472528076118849;completionTime,AluBusy_2:0,721743543170757;completionTime,aluPacking_2:0,731661530521893;completionTime,fetchUnitBusy_2:0,586190145219488;completionTime,fetchUnitStalled_2:0,50523167472145;completionTime,fastPath_2:0,472528076118849;gpuBusy_1,waveFronts_1:0,529907158289085;gpuBusy_1,fetchUnitStalled_1:0,532987892651327;gpuBusy_1,fastPath_1:0,529907158289085;gpuBusy_1,gpuBusy_2:0,521358072167032;gpuBusy_1,aluPacking_2:0,422172219226754;gpuBusy_1,fetchUnitBusy_2:0,94812444161279;gpuBusy_1,fetchUnitStalled_2:0,446111735109338;gpuBusy_1,fetchSize_2:-0,611119371753375;gpuBusy_1,cacheHit_2:0,459603912767424;waveFronts_1,AluBusy_1:0,589609510516596;waveFronts_1,aluPacking_1:0,679102141830232;waveFronts_1,fetchUnitBusy_1:0,76238498557819;waveFronts_1,fetchUnitStalled_1:0,999988704803203;waveFronts_1,fetchSize_1:0,851543418593288;waveFronts_1,fastPath_1:1;waveFronts_1,gpuBusy_2:0,934303904926314;waveFronts_1,waveFronts_2:0,864823504588112;waveFronts_1,AluBusy_2:0,919364015016296;waveFronts_1,aluPacking_2:0,930089998598999;waveFronts_1,fetchUnitBusy_2:0,712180650483945;waveFronts_1,fetchUnitStalled_2:0,878126719112435;waveFronts_1,cacheHit_2:0,669272910406537;waveFronts_1,fastPath_2:0,864823504588112;AluBusy_1,aluFetchRatio_1:+Infinito;AluBusy_1,aluPacking_1:0,977482267810146;AluBusy_1,fetchUnitBusy_1:0,703786783117699;AluBusy_1,fetchUnitStalled_1:0,587078151971134;AluBusy_1,fetchSize_1:0,701645998982079;AluBusy_1,fastPath_1:0,589609510516596;AluBusy_1,gpuBusy_2:0,550499888619484;AluBusy_1,waveFronts_2:0,605426218963926;AluBusy_1,AluBusy_2:0,649507951566999;AluBusy_1,aluFetchRatio_2:0,470687672281628;AluBusy_1,aluPacking_2:0,623386481567789;AluBusy_1,fetchUnitStalled_2:0,540431481656761;AluBusy_1,fetchSize_2:0,748095080646941;AluBusy_1,fastPath_2:0,605426218963926;aluPacking_1,fetchUnitBusy_1:0,837843949856348;aluPacking_1,fetchUnitStalled_1:0,676412627848267;aluPacking_1,fetchSize_1:0,720950166053043;aluPacking_1,fastPath_1:0,679102141830232;aluPacking_1,gpuBusy_2:0,594313971111823;aluPacking_1,waveFronts_2:0,69914936182576;aluPacking_1,AluBusy_2:0,687568183038836;aluPacking_1,aluFetchRatio_2:0,568022128163357;aluPacking_1,aluPacking_2:0,666646739705872;aluPacking_1,fetchUnitStalled_2:0,641247619531527;aluPacking_1,fetchSize_2:0,633671640063273;aluPacking_1,fastPath_2:0,69914936182576;fetchUnitBusy_1,fetchUnitStalled_1:0,759882558297136;fetchUnitBusy_1,fetchSize_1:0,612476186838667;fetchUnitBusy_1,fastPath_1:0,76238498557819;fetchUnitBusy_1,gpuBusy_2:0,577268534139136;fetchUnitBusy_1,waveFronts_2:0,788473734441974;fetchUnitBusy_1,AluBusy_2:0,635739735771656;fetchUnitBusy_1,aluFetchRatio_2:0,695060943058665;fetchUnitBusy_1,aluPacking_2:0,632932205772323;fetchUnitBusy_1,fetchUnitStalled_2:0,761751504854713;fetchUnitBusy_1,cacheHit_2:0,663129634882569;fetchUnitBusy_1,fastPath_2:0,788473734441974;fetchUnitStalled_1,fetchSize_1:0,851348750169782;fetchUnitStalled_1,fastPath_1:0,999988704803203;fetchUnitStalled_1,gpuBusy_2:0,935031786640484;fetchUnitStalled_1,waveFronts_2:0,863876456103196;fetchUnitStalled_1,AluBusy_2:0,919275812228113;fetchUnitStalled_1,aluPacking_2:0,93012667698301;fetchUnitStalled_1,fetchUnitBusy_2:0,714436188733988;fetchUnitStalled_1,fetchUnitStalled_2:0,877548037005882;fetchUnitStalled_1,cacheHit_2:0,668337263159105;fetchUnitStalled_1,fastPath_2:0,863876456103196;fetchSize_1,fastPath_1:0,85154341859323;fetchSize_1,gpuBusy_2:0,916480630973994;fetchSize_1,aluInsts_2:-Infinito;fetchSize_1,waveFronts_2:0,641273529650347;fetchSize_1,AluBusy_2:0,960389881183012;fetchSize_1,aluPacking_2:0,95432748005825;fetchSize_1,fetchUnitBusy_2:0,42658977816729;fetchSize_1,fetchUnitStalled_2:0,631090769444914;fetchSize_1,fetchSize_2:0,460072387049334;fetchSize_1,cacheHit_2:0,45306840458496;fetchSize_1,fastPath_2:0,641273529650347;cacheHit_1,aluInsts_2:-Infinito;cacheHit_1,fetchInsts_2:0,534400050745327;cacheHit_1,wrInsts_2:0,534400057292031;cacheHit_1,fetchSize_2:0,680456258209688;fastPath_1,gpuBusy_2:0,934303904926314;fastPath_1,waveFronts_2:0,864823504588112;fastPath_1,AluBusy_2:0,919364015016296;fastPath_1,aluPacking_2:0,930089998598999;fastPath_1,fetchUnitBusy_2:0,712180650483945;fastPath_1,fetchUnitStalled_2:0,878126719112435;fastPath_1,cacheHit_2:0,669272910406537;fastPath_1,fastPath_2:0,864823504588112;gpuBusy_2,aluInsts_2:+Infinito;gpuBusy_2,waveFronts_2:0,715776151262458;gpuBusy_2,AluBusy_2:0,953167756885742;gpuBusy_2,aluPacking_2:0,96036190533711;gpuBusy_2,fetchUnitBusy_2:0,666499880316991;gpuBusy_2,fetchUnitStalled_2:0,734128753880664;gpuBusy_2,cacheHit_2:0,567998389401857;gpuBusy_2,fastPath_2:0,715776151262458;fetchInsts_2,wrInsts_2:1;waveFronts_2,AluBusy_2:0,682193636818857;waveFronts_2,aluPacking_2:0,695275199148156;waveFronts_2,fetchUnitBusy_2:0,623284729596627;waveFronts_2,fetchUnitStalled_2:0,995360913121662;waveFronts_2,cacheHit_2:0,814527557047711;waveFronts_2,fastPath_2:1;AluBusy_2,aluPacking_2:0,998956095790711;AluBusy_2,fetchUnitBusy_2:0,540415515781445;AluBusy_2,fetchUnitStalled_2:0,682403953686919;AluBusy_2,cacheHit_2:0,502295366392639;AluBusy_2,fastPath_2:0,682193636818857;aluPacking_2,fetchUnitBusy_2:0,57828650550581;aluPacking_2,fetchUnitStalled_2:0,699248168312494;aluPacking_2,cacheHit_2:0,524313953000056;aluPacking_2,fastPath_2:0,695275199148156;fetchUnitBusy_2,fetchUnitStalled_2:0,692702669296406;fetchUnitBusy_2,fetchSize_2:-0,469651336297825;fetchUnitBusy_2,cacheHit_2:0,687091623797126;fetchUnitBusy_2,fastPath_2:0,623284729596627;fetchUnitStalled_2,cacheHit_2:0,829309346592044;fetchUnitStalled_2,fastPath_2:0,995360913121662;cacheHit_2,fastPath_2:0,814527557047711;
matrix_w,matrix_h:0,900594602159211;matrix_w,samples:0,900594602159211;matrix_w,extechWatt:0,903710079769659;matrix_w,completionTime:0,852868265365454;matrix_w,gpuBusy_1:0,904863798952967;matrix_w,waveFronts_1:0,897613285824879;matrix_w,AluBusy_1:0,732620262521559;matrix_w,aluPacking_1:-0,594825802248634;matrix_w,fetchUnitBusy_1:-0,641989789003926;matrix_w,fetchUnitStalled_1:0,899190715806145;matrix_w,fetchSize_1:0,574972051061103;matrix_w,cacheHit_1:0,581544568809533;matrix_w,fastPath_1:0,89758452195163;matrix_w,gpuBusy_2:0,920355038127778;matrix_w,waveFronts_2:0,584035095729447;matrix_w,fetchUnitBusy_2:0,992340699460938;matrix_w,fetchUnitStalled_2:0,638244320125543;matrix_w,fetchSize_2:-0,421392012802059;matrix_w,cacheHit_2:0,802112309994084;matrix_w,fastPath_2:0,584228900440546;matrix_h,samples:1;matrix_h,extechWatt:0,968112733713318;matrix_h,completionTime:0,796870123614867;matrix_h,gpuBusy_1:0,850385762970862;matrix_h,waveFronts_1:0,840756676987481;matrix_h,AluBusy_1:0,671737135908972;matrix_h,aluPacking_1:-0,554398030753544;matrix_h,fetchUnitBusy_1:-0,597585409600707;matrix_h,fetchUnitStalled_1:0,84159673757638;matrix_h,fetchSize_1:0,543928513195011;matrix_h,cacheHit_1:0,529426142559433;matrix_h,fastPath_1:0,840718423772517;matrix_h,gpuBusy_2:0,864629228353668;matrix_h,waveFronts_2:0,493527497927482;matrix_h,fetchUnitBusy_2:0,890828949792114;matrix_h,fetchUnitStalled_2:0,53233193962123;matrix_h,cacheHit_2:0,734412882790946;matrix_h,fastPath_2:0,49368229696916;samples,extechWatt:0,968112733713318;samples,completionTime:0,796870123614867;samples,gpuBusy_1:0,850385762970862;samples,waveFronts_1:0,840756676987481;samples,AluBusy_1:0,671737135908972;samples,aluPacking_1:-0,554398030753544;samples,fetchUnitBusy_1:-0,597585409600707;samples,fetchUnitStalled_1:0,84159673757638;samples,fetchSize_1:0,543928513195011;samples,cacheHit_1:0,529426142559433;samples,fastPath_1:0,840718423772517;samples,gpuBusy_2:0,864629228353668;samples,waveFronts_2:0,493527497927482;samples,fetchUnitBusy_2:0,890828949792114;samples,fetchUnitStalled_2:0,53233193962123;samples,cacheHit_2:0,734412882790946;samples,fastPath_2:0,49368229696916;extechWatt,completionTime:0,6855477618577;extechWatt,gpuBusy_1:0,752042199336584;extechWatt,waveFronts_1:0,739058668129759;extechWatt,AluBusy_1:0,54953751246097;extechWatt,aluPacking_1:-0,452384747061046;extechWatt,fetchUnitBusy_1:-0,488154056047802;extechWatt,fetchUnitStalled_1:0,740826164259959;extechWatt,cacheHit_1:0,402301040685669;extechWatt,fastPath_1:0,739013106467698;extechWatt,gpuBusy_2:0,77362824507887;extechWatt,fetchUnitBusy_2:0,904325725973505;extechWatt,fetchSize_2:-0,537417321254958;extechWatt,cacheHit_2:0,616732025590266;completionTime,gpuBusy_1:0,984632281207492;completionTime,waveFronts_1:0,985802058155325;completionTime,AluBusy_1:0,857956219453151;completionTime,aluFetchRatio_1:+Infinito;completionTime,aluPacking_1:+Infinito;completionTime,aluPacking_1:-0,817843213597938;completionTime,fetchUnitBusy_1:-0,864571623056431;completionTime,fetchUnitStalled_1:0,985456572254496;completionTime,fetchSize_1:0,790609288379586;completionTime,cacheHit_1:0,752833819025054;completionTime,fastPath_1:0,985812934284068;completionTime,pathUtil_1:-Infinito;completionTime,gpuBusy_2:0,981112579457553;completionTime,waveFronts_2:0,748967446902489;completionTime,aluPacking_2:+Infinito;completionTime,fetchUnitBusy_2:0,815049455544087;completionTime,fetchUnitStalled_2:0,7710607991576;completionTime,cacheHit_2:0,937197237284612;completionTime,fastPath_2:0,749059969183816;completionTime,pathUtil_2:-Infinito;gpuBusy_1,waveFronts_1:0,999052766849712;gpuBusy_1,AluBusy_1:0,896451700136002;gpuBusy_1,aluPacking_1:-0,751203919631148;gpuBusy_1,fetchUnitBusy_1:-0,806549696570807;gpuBusy_1,fetchUnitStalled_1:0,999131803842901;gpuBusy_1,fetchSize_1:0,814482790976619;gpuBusy_1,cacheHit_1:0,787960019595196;gpuBusy_1,fastPath_1:0,999052235079553;gpuBusy_1,gpuBusy_2:0,997475064633072;gpuBusy_1,waveFronts_2:0,743692860297611;gpuBusy_1,aluPacking_2:0,40997300660709;gpuBusy_1,fetchUnitBusy_2:0,882289143895826;gpuBusy_1,fetchUnitStalled_2:0,772385919465487;gpuBusy_1,cacheHit_2:0,953614027300076;gpuBusy_1,fastPath_2:0,743810873347283;waveFronts_1,AluBusy_1:0,898778849812654;waveFronts_1,aluFetchRatio_1:+Infinito;waveFronts_1,aluPacking_1:-0,760453824575346;waveFronts_1,fetchUnitBusy_1:-0,815236120802498;waveFronts_1,fetchUnitStalled_1:0,999989552375884;waveFronts_1,fetchSize_1:0,818660514973734;waveFronts_1,cacheHit_1:0,790510311616258;waveFronts_1,fastPath_1:0,999999994249531;waveFronts_1,gpuBusy_2:0,99709135409319;waveFronts_1,aluInsts_2:+Infinito;waveFronts_1,waveFronts_2:0,761511021074917;waveFronts_1,aluPacking_2:0,410586389169498;waveFronts_1,fetchUnitBusy_2:0,874275983735233;waveFronts_1,fetchUnitStalled_2:0,78842224121123;waveFronts_1,cacheHit_2:0,959594485497462;waveFronts_1,fastPath_2:0,761623470267044;AluBusy_1,aluPacking_1:-0,534937286661173;AluBusy_1,fetchUnitBusy_1:-0,615417391766476;AluBusy_1,fetchUnitStalled_1:0,898767643227654;AluBusy_1,fetchSize_1:0,970046599153044;AluBusy_1,cacheHit_1:0,964629762005233;AluBusy_1,fastPath_1:0,898795164790548;AluBusy_1,gpuBusy_2:0,879119905646451;AluBusy_1,waveFronts_2:0,676832133095784;AluBusy_1,AluBusy_2:0,638340692960766;AluBusy_1,aluPacking_2:0,705945990072025;AluBusy_1,fetchUnitBusy_2:0,731162555884895;AluBusy_1,fetchUnitStalled_2:0,691642214188934;AluBusy_1,cacheHit_2:0,943393830934586;AluBusy_1,fastPath_2:0,676910273637076;aluPacking_1,fetchUnitBusy_1:0,995083286606427;aluPacking_1,fetchUnitStalled_1:-0,759895826541315;aluPacking_1,fetchSize_1:-0,531469286280989;aluPacking_1,cacheHit_1:-0,493856106843434;aluPacking_1,fastPath_1:-0,760483721939254;aluPacking_1,pathUtil_1:-Infinito;aluPacking_1,gpuBusy_2:-0,749023161626312;aluPacking_1,waveFronts_2:-0,544662953329228;aluPacking_1,aluPacking_2:-Infinito;aluPacking_1,fetchUnitBusy_2:-0,560784740688379;aluPacking_1,fetchUnitStalled_2:-0,555985759039107;aluPacking_1,cacheHit_2:-0,767404084505488;aluPacking_1,fastPath_2:-0,544724514347839;aluPacking_1,pathUtil_2:-Infinito;fetchUnitBusy_1,fetchUnitStalled_1:-0,814704886807094;fetchUnitBusy_1,fetchSize_1:-0,608520200445102;fetchUnitBusy_1,cacheHit_1:-0,571862362158358;fetchUnitBusy_1,fastPath_1:-0,815265761311884;fetchUnitBusy_1,gpuBusy_2:-0,802690961119295;fetchUnitBusy_1,waveFronts_2:-0,588317431429323;fetchUnitBusy_1,fetchUnitBusy_2:-0,609282937822183;fetchUnitBusy_1,fetchUnitStalled_2:-0,600698582983005;fetchUnitBusy_1,cacheHit_2:-0,825504575031528;fetchUnitBusy_1,fastPath_2:-0,58838411072269;fetchUnitStalled_1,fetchSize_1:0,818122406648787;fetchUnitStalled_1,cacheHit_1:0,790587830138455;fetchUnitStalled_1,fastPath_1:0,999989482087173;fetchUnitStalled_1,gpuBusy_2:0,997201866958561;fetchUnitStalled_1,waveFronts_2:0,759445151639392;fetchUnitStalled_1,aluPacking_2:0,410825103886674;fetchUnitStalled_1,fetchUnitBusy_2:0,876190468547189;fetchUnitStalled_1,fetchUnitStalled_2:0,786663416214122;fetchUnitStalled_1,cacheHit_2:0,959589369567737;fetchUnitStalled_1,fastPath_2:0,759558620110314;fetchSize_1,cacheHit_1:0,987688712462536;fetchSize_1,fastPath_1:0,818693503519633;fetchSize_1,gpuBusy_2:0,788245041394919;fetchSize_1,waveFronts_2:0,619187283165432;fetchSize_1,AluBusy_2:0,772060200657374;fetchSize_1,aluPacking_2:0,821217415180995;fetchSize_1,fetchUnitBusy_2:0,576001337166389;fetchSize_1,fetchUnitStalled_2:0,619889423230506;fetchSize_1,fetchSize_2:0,470263642295659;fetchSize_1,cacheHit_2:0,910335365342499;fetchSize_1,fastPath_2:0,619222418146423;cacheHit_1,fastPath_1:0,790545757454766;cacheHit_1,gpuBusy_2:0,760757510687414;cacheHit_1,waveFronts_2:0,528233189109241;cacheHit_1,AluBusy_2:0,81293959382012;cacheHit_1,aluPacking_2:0,863430246286508;cacheHit_1,fetchUnitBusy_2:0,595263620075129;cacheHit_1,fetchUnitStalled_2:0,535227111172932;cacheHit_1,fetchSize_2:0,473814893428611;cacheHit_1,cacheHit_2:0,896684531826078;cacheHit_1,fastPath_2:0,528289110002719;fastPath_1,gpuBusy_2:0,997086134470273;fastPath_1,aluInsts_2:-Infinito;fastPath_1,waveFronts_2:0,761491332779795;fastPath_1,aluPacking_2:0,410654672648386;fastPath_1,fetchUnitBusy_2:0,874246176498381;fastPath_1,fetchUnitStalled_2:0,788399597224821;fastPath_1,cacheHit_2:0,959609993209257;fastPath_1,fastPath_2:0,761603772155539;gpuBusy_2,waveFronts_2:0,753228234683104;gpuBusy_2,fetchUnitBusy_2:0,894628773481558;gpuBusy_2,fetchUnitStalled_2:0,783307493125293;gpuBusy_2,cacheHit_2:0,945461670880796;gpuBusy_2,fastPath_2:0,753349364828795;fetchInsts_2,wrInsts_2:1;fetchInsts_2,AluBusy_2:0,474045502511358;fetchInsts_2,aluPacking_2:0,456955029737414;wrInsts_2,AluBusy_2:0,474045492686487;wrInsts_2,aluPacking_2:0,456955020341986;waveFronts_2,aluFetchRatio_2:0,645912806277021;waveFronts_2,fetchUnitBusy_2:0,533779942693237;waveFronts_2,fetchUnitStalled_2:0,996855223353064;waveFronts_2,cacheHit_2:0,719760065414364;waveFronts_2,fastPath_2:0,999999963992658;AluBusy_2,aluPacking_2:0,994443712191092;AluBusy_2,fetchSize_2:0,790205122277145;AluBusy_2,cacheHit_2:0,529130831527683;aluFetchRatio_2,fetchUnitStalled_2:0,61259993638975;aluFetchRatio_2,fastPath_2:0,645813138347442;aluPacking_2,fetchSize_2:0,734951514744395;aluPacking_2,cacheHit_2:0,604989098485389;fetchUnitBusy_2,fetchUnitStalled_2:0,590821188902314;fetchUnitBusy_2,fetchSize_2:-0,407296922817589;fetchUnitBusy_2,cacheHit_2:0,793261963512476;fetchUnitBusy_2,fastPath_2:0,533986393764688;fetchUnitStalled_2,cacheHit_2:0,738829017225371;fetchUnitStalled_2,fastPath_2:0,9968758418879;fetchUnitStalled_2,pathUtil_2:-Infinito;cacheHit_2,fastPath_2:0,719854860831494;fastPath_2,pathUtil_2:-Infinito;
matrix_w,matrix_h:0,900594602159211;matrix_w,samples:0,900594602159211;matrix_w,extechWatt:0,903130626059338;matrix_w,gpuBusy_1:0,940807513792451;matrix_w,waveFronts_1:0,905420133346727;matrix_w,AluBusy_1:0,57534839215376;matrix_w,aluPacking_1:0,671402637474858;matrix_w,fetchUnitBusy_1:0,968182959106685;matrix_w,fetchUnitStalled_1:0,906910856014071;matrix_w,fetchSize_1:0,576181944813083;matrix_w,cacheHit_1:0,534502749706664;matrix_w,fastPath_1:0,905427147662614;matrix_w,gpuBusy_2:0,749338164937464;matrix_w,waveFronts_2:0,695883594544052;matrix_w,AluBusy_2:0,515814122358764;matrix_w,aluPacking_2:0,681224644192076;matrix_w,fetchUnitBusy_2:0,954275864732264;matrix_w,fetchUnitStalled_2:0,755204926691615;matrix_w,fetchSize_2:-0,421550800729333;matrix_w,cacheHit_2:0,862318672570536;matrix_w,fastPath_2:0,695929716956293;matrix_h,samples:1;matrix_h,extechWatt:0,967334963195301;matrix_h,gpuBusy_1:0,890968507694891;matrix_h,waveFronts_1:0,855542320429189;matrix_h,AluBusy_1:0,52194606224692;matrix_h,aluPacking_1:0,59654692508591;matrix_h,fetchUnitBusy_1:0,793987114254493;matrix_h,fetchUnitStalled_1:0,856316443129384;matrix_h,fetchSize_1:0,546592040036889;matrix_h,cacheHit_1:0,479932482003046;matrix_h,fastPath_1:0,855548206416654;matrix_h,gpuBusy_2:0,670939799741205;matrix_h,waveFronts_2:0,777168921480039;matrix_h,AluBusy_2:0,470937755151486;matrix_h,aluPacking_2:0,623839904384306;matrix_h,fetchUnitBusy_2:0,877321181668874;matrix_h,fetchUnitStalled_2:0,835903949756808;matrix_h,cacheHit_2:0,781791476251728;matrix_h,fastPath_2:0,777207834519628;samples,extechWatt:0,967334963195301;samples,gpuBusy_1:0,890968507694891;samples,waveFronts_1:0,855542320429189;samples,AluBusy_1:0,52194606224692;samples,aluPacking_1:0,59654692508591;samples,fetchUnitBusy_1:0,793987114254493;samples,fetchUnitStalled_1:0,856316443129384;samples,fetchSize_1:0,546592040036889;samples,cacheHit_1:0,479932482003046;samples,fastPath_1:0,855548206416654;samples,gpuBusy_2:0,670939799741205;samples,waveFronts_2:0,777168921480039;samples,AluBusy_2:0,470937755151486;samples,aluPacking_2:0,623839904384306;samples,fetchUnitBusy_2:0,877321181668874;samples,fetchUnitStalled_2:0,835903949756808;samples,cacheHit_2:0,781791476251728;samples,fastPath_2:0,777207834519628;extechWatt,gpuBusy_1:0,809153651209846;extechWatt,waveFronts_1:0,754737508431561;extechWatt,AluBusy_1:0,40909952168405;extechWatt,aluPacking_1:0,497658083825633;extechWatt,fetchUnitBusy_1:0,815056308647707;extechWatt,fetchUnitStalled_1:0,756403916502463;extechWatt,fastPath_1:0,754748955434397;extechWatt,gpuBusy_2:0,530404636109769;extechWatt,waveFronts_2:0,691157768931268;extechWatt,aluPacking_2:0,502993251615923;extechWatt,fetchUnitBusy_2:0,834425352561812;extechWatt,fetchUnitStalled_2:0,769673727303883;extechWatt,fetchSize_2:-0,533966030992702;extechWatt,cacheHit_2:0,693264119186714;extechWatt,fastPath_2:0,691208833443162;completionTime,aluInsts_1:+Infinito;completionTime,fetchInsts_1:-Infinito;completionTime,aluInsts_2:+Infinito;completionTime,cacheHit_2:0,439340751417122;gpuBusy_1,waveFronts_1:0,993722243153809;gpuBusy_1,AluBusy_1:0,67053716369858;gpuBusy_1,aluPacking_1:0,743831537560001;gpuBusy_1,fetchUnitBusy_1:0,880901252903477;gpuBusy_1,fetchUnitStalled_1:0,993972810479703;gpuBusy_1,fetchSize_1:0,744644374339968;gpuBusy_1,cacheHit_1:0,670246121613706;gpuBusy_1,fastPath_1:0,993723151709675;gpuBusy_1,gpuBusy_2:0,907548257791264;gpuBusy_1,waveFronts_2:0,801236224736918;gpuBusy_1,AluBusy_2:0,667955659065682;gpuBusy_1,aluPacking_2:0,810977524181904;gpuBusy_1,fetchUnitBusy_2:0,949668607272393;gpuBusy_1,fetchUnitStalled_2:0,828317855546775;gpuBusy_1,cacheHit_2:0,919426827408072;gpuBusy_1,fastPath_2:0,801261999854531;waveFronts_1,AluBusy_1:0,712442679993677;waveFronts_1,aluPacking_1:0,775581287368818;waveFronts_1,fetchUnitBusy_1:0,840058974262398;waveFronts_1,fetchUnitStalled_1:0,99999094563052;waveFronts_1,fetchSize_1:0,804478674646619;waveFronts_1,cacheHit_1:0,731031231395662;waveFronts_1,fastPath_1:0,999999999251653;waveFronts_1,gpuBusy_2:0,947157096059787;waveFronts_1,waveFronts_2:0,81668373341084;waveFronts_1,AluBusy_2:0,730280656879556;waveFronts_1,aluPacking_2:0,858153420330347;waveFronts_1,fetchUnitBusy_2:0,923654285377237;waveFronts_1,fetchUnitStalled_2:0,832792377984324;waveFronts_1,cacheHit_2:0,910825566285057;waveFronts_1,fastPath_2:0,816702612177414;AluBusy_1,aluPacking_1:0,991666435590228;AluBusy_1,fetchUnitBusy_1:0,532522011245982;AluBusy_1,fetchUnitStalled_1:0,712218016508735;AluBusy_1,fetchSize_1:0,870741317621384;AluBusy_1,cacheHit_1:0,857006806246945;AluBusy_1,fastPath_1:0,712433618259547;AluBusy_1,gpuBusy_2:0,743718922247967;AluBusy_1,waveFronts_2:0,520302817125709;AluBusy_1,AluBusy_2:0,78374938442202;AluBusy_1,aluPacking_2:0,829540638305042;AluBusy_1,fetchUnitBusy_2:0,623068146973454;AluBusy_1,fetchUnitStalled_2:0,517118598912055;AluBusy_1,cacheHit_2:0,66145810678698;AluBusy_1,fastPath_2:0,520306485219987;aluFetchRatio_1,fetchUnitBusy_1:+Infinito;aluPacking_1,fetchUnitBusy_1:0,637081658444444;aluPacking_1,fetchUnitStalled_1:0,775617704379068;aluPacking_1,fetchSize_1:0,863971606620599;aluPacking_1,cacheHit_1:0,844667711153168;aluPacking_1,fastPath_1:0,77557390099074;aluPacking_1,pathUtil_1:-Infinito;aluPacking_1,gpuBusy_2:0,77914476203884;aluPacking_1,aluInsts_2:-Infinito;aluPacking_1,waveFronts_2:0,562589969930715;aluPacking_1,AluBusy_2:0,773064445496699;aluPacking_1,aluPacking_2:-Infinito;aluPacking_1,aluPacking_2:0,842335916812727;aluPacking_1,fetchUnitBusy_2:0,711706803185175;aluPacking_1,fetchUnitStalled_2:0,56898657267119;aluPacking_1,cacheHit_2:0,734745602520866;aluPacking_1,fastPath_2:0,562600788723312;aluPacking_1,pathUtil_2:-Infinito;fetchUnitBusy_1,fetchUnitStalled_1:0,841564786619787;fetchUnitBusy_1,fetchSize_1:0,471983613558801;fetchUnitBusy_1,cacheHit_1:0,424338505737718;fetchUnitBusy_1,fastPath_1:0,840064223793237;fetchUnitBusy_1,gpuBusy_2:0,68021765937317;fetchUnitBusy_1,waveFronts_2:0,587149530157862;fetchUnitBusy_1,aluPacking_2:0,575167094937455;fetchUnitBusy_1,fetchUnitBusy_2:0,951835916981564;fetchUnitBusy_1,fetchUnitStalled_2:0,646358991058457;fetchUnitBusy_1,fetchSize_2:-0,501490476207976;fetchUnitBusy_1,cacheHit_2:0,878140234426564;fetchUnitBusy_1,fastPath_2:0,587197652685202;fetchUnitStalled_1,fetchSize_1:0,804020690753175;fetchUnitStalled_1,cacheHit_1:0,731137659120846;fetchUnitStalled_1,fastPath_1:0,99999105245221;fetchUnitStalled_1,pathUtil_1:-Infinito;fetchUnitStalled_1,gpuBusy_2:0,946554917996959;fetchUnitStalled_1,aluInsts_2:-Infinito;fetchUnitStalled_1,waveFronts_2:0,816608699972089;fetchUnitStalled_1,AluBusy_2:0,730301817999933;fetchUnitStalled_1,aluPacking_2:-Infinito;fetchUnitStalled_1,aluPacking_2:0,858278838398432;fetchUnitStalled_1,fetchUnitBusy_2:0,924078107684399;fetchUnitStalled_1,fetchUnitStalled_2:0,833040861224458;fetchUnitStalled_1,cacheHit_2:0,910309632225798;fetchUnitStalled_1,fastPath_2:0,816627805350008;fetchUnitStalled_1,pathUtil_2:-Infinito;fetchSize_1,cacheHit_1:0,981164830135924;fetchSize_1,fastPath_1:0,804475652307617;fetchSize_1,gpuBusy_2:0,904933930260173;fetchSize_1,waveFronts_2:0,679871097166216;fetchSize_1,AluBusy_2:0,974787641258243;fetchSize_1,aluPacking_2:0,982336839883658;fetchSize_1,fetchUnitBusy_2:0,575548008643563;fetchSize_1,fetchUnitStalled_2:0,654277633353439;fetchSize_1,fetchSize_2:0,468612092424354;fetchSize_1,cacheHit_2:0,608331609553676;fetchSize_1,fastPath_2:0,679861785004053;cacheHit_1,fastPath_1:0,731032025006395;cacheHit_1,gpuBusy_2:0,844042860525843;cacheHit_1,waveFronts_2:0,620278941562735;cacheHit_1,AluBusy_2:0,989490716578421;cacheHit_1,aluPacking_2:0,973890317407617;cacheHit_1,fetchUnitBusy_2:0,490227561490573;cacheHit_1,fetchUnitStalled_2:0,597528017623051;cacheHit_1,fetchSize_2:0,519543226366849;cacheHit_1,cacheHit_2:0,498840096307499;cacheHit_1,fastPath_2:0,620271534104508;fastPath_1,gpuBusy_2:0,94715556900582;fastPath_1,waveFronts_2:0,816697713342538;fastPath_1,AluBusy_2:0,730283209813459;fastPath_1,aluPacking_2:0,858155541195362;fastPath_1,fetchUnitBusy_2:0,923653891144036;fastPath_1,fetchUnitStalled_2:0,832807201428965;fastPath_1,cacheHit_2:0,910817890644139;fastPath_1,fastPath_2:0,81671659270323;gpuBusy_2,waveFronts_2:0,788622190568077;gpuBusy_2,AluBusy_2:0,856791436145088;gpuBusy_2,aluPacking_2:0,930764834550792;gpuBusy_2,fetchUnitBusy_2:0,777909881024896;gpuBusy_2,fetchUnitStalled_2:0,77151367267444;gpuBusy_2,cacheHit_2:0,811773447792389;gpuBusy_2,fastPath_2:0,788620891137955;fetchInsts_2,wrInsts_2:0,999999999999992;fetchInsts_2,aluFetchRatio_2:-0,471854771744248;wrInsts_2,aluFetchRatio_2:-0,471854825791589;waveFronts_2,AluBusy_2:0,650167919906338;waveFronts_2,aluPacking_2:0,732545349179295;waveFronts_2,fetchUnitBusy_2:0,694435998451289;waveFronts_2,fetchUnitStalled_2:0,993033274114397;waveFronts_2,cacheHit_2:0,642094221244545;waveFronts_2,fastPath_2:0,999999997267865;AluBusy_2,aluPacking_2:0,975431665158971;AluBusy_2,fetchUnitBusy_2:0,459927938714096;AluBusy_2,fetchUnitStalled_2:0,621281847540312;AluBusy_2,fetchSize_2:0,522346989634901;AluBusy_2,cacheHit_2:0,466201897679707;AluBusy_2,fastPath_2:0,650156869305968;aluPacking_2,fetchUnitBusy_2:0,644243825958816;aluPacking_2,fetchUnitStalled_2:0,719204821478074;aluPacking_2,cacheHit_2:0,6417546347441;aluPacking_2,fastPath_2:0,732545069332929;fetchUnitBusy_2,fetchUnitStalled_2:0,740608090142591;fetchUnitBusy_2,cacheHit_2:0,969027822436008;fetchUnitBusy_2,fastPath_2:0,694473087124217;fetchUnitStalled_2,cacheHit_2:0,669075677975959;fetchUnitStalled_2,fastPath_2:0,993041663893727;cacheHit_2,fastPath_2:0,642119054217728;cacheHit_2,pathUtil_2:-Infinito;
matrix_w,matrix_h:0,900594602159211;matrix_w,samples:0,900594602159211;matrix_w,extechWatt:0,777289038186;matrix_w,completionTime:0,70296115194534;matrix_w,gpuBusy_1:0,828655347736177;matrix_w,waveFronts_1:0,724565544033568;matrix_w,fetchUnitStalled_1:0,725192516660344;matrix_w,fetchSize_1:0,595072521119624;matrix_w,fastPath_1:0,724565544033568;matrix_h,samples:1;matrix_h,extechWatt:0,924778158265208;matrix_h,completionTime:0,600228062197578;matrix_h,gpuBusy_1:0,595129007750037;matrix_h,waveFronts_1:0,56665029647159;matrix_h,fetchUnitStalled_1:0,566763274976476;matrix_h,fetchSize_1:0,541087859370839;matrix_h,fastPath_1:0,56665029647159;filter_size,completionTime:+Infinito;samples,extechWatt:0,924778158265208;samples,completionTime:0,600228062197578;samples,gpuBusy_1:0,595129007750037;samples,waveFronts_1:0,56665029647159;samples,fetchUnitStalled_1:0,566763274976476;samples,fetchSize_1:0,541087859370839;samples,fastPath_1:0,56665029647159;extechWatt,gpuBusy_1:0,515771396012531;extechWatt,aluInsts_1:+Infinito;extechWatt,fetchInsts_1:+Infinito;extechWatt,aluFetchRatio_1:+Infinito;completionTime,gpuBusy_1:0,448884849828502;completionTime,aluInsts_1:+Infinito;completionTime,fetchInsts_1:+Infinito;completionTime,waveFronts_1:0,912878141122707;completionTime,AluBusy_1:0,514180668625888;completionTime,aluFetchRatio_1:+Infinito;completionTime,aluPacking_1:+Infinito;completionTime,aluPacking_1:0,608799975041708;completionTime,fetchUnitBusy_1:0,699232151632894;completionTime,fetchUnitStalled_1:0,912596196696669;completionTime,fetchSize_1:0,77260045324971;completionTime,fastPath_1:0,912878141122707;completionTime,pathUtil_1:+Infinito;gpuBusy_1,waveFronts_1:0,50149164109183;gpuBusy_1,AluBusy_1:-0,414179209754041;gpuBusy_1,fetchUnitStalled_1:0,502854951433592;gpuBusy_1,fastPath_1:0,50149164109183;waveFronts_1,AluBusy_1:0,555473158033319;waveFronts_1,aluPacking_1:0,647985089448238;waveFronts_1,fetchUnitBusy_1:0,722947020453766;waveFronts_1,fetchUnitStalled_1:0,999997371376001;waveFronts_1,fetchSize_1:0,856077118153647;waveFronts_1,fastPath_1:1;AluBusy_1,aluPacking_1:+Infinito;AluBusy_1,aluPacking_1:0,974294800712332;AluBusy_1,fetchUnitBusy_1:0,648324254690013;AluBusy_1,fetchUnitStalled_1:0,554506104350322;AluBusy_1,fetchSize_1:0,661698878579016;AluBusy_1,fastPath_1:0,555473158033319;AluBusy_1,pathUtil_1:+Infinito;aluPacking_1,fetchUnitBusy_1:0,803174501898597;aluPacking_1,fetchUnitStalled_1:0,646821732663886;aluPacking_1,fetchSize_1:0,692674798809573;aluPacking_1,fastPath_1:0,647985089448238;fetchUnitBusy_1,fetchUnitStalled_1:0,721575393962542;fetchUnitBusy_1,fetchSize_1:0,592101363932206;fetchUnitBusy_1,fastPath_1:0,722947020453766;fetchUnitStalled_1,fetchSize_1:0,856279380733349;fetchUnitStalled_1,fastPath_1:0,999997371376001;fetchSize_1,fastPath_1:0,856077118153647;
matrix_w,matrix_h:0,900594602159211;matrix_w,samples:0,900594602159211;matrix_w,extechWatt:0,884845206206844;matrix_w,completionTime:0,609188921965266;matrix_w,gpuBusy_1:0,791645249874376;matrix_w,waveFronts_1:0,873645504257694;matrix_w,AluBusy_1:0,832266658355824;matrix_w,aluPacking_1:-0,546039311209545;matrix_w,fetchUnitBusy_1:-0,632018206518747;matrix_w,fetchUnitStalled_1:0,874574971538492;matrix_w,fetchSize_1:0,595763640438473;matrix_w,cacheHit_1:0,543195062664193;matrix_w,fastPath_1:0,873634122933936;matrix_h,samples:1;matrix_h,extechWatt:0,963739175864495;matrix_h,completionTime:0,578176432830068;matrix_h,gpuBusy_1:0,731159540109973;matrix_h,waveFronts_1:0,799427078157704;matrix_h,AluBusy_1:0,788037465679097;matrix_h,aluPacking_1:-0,47148593509686;matrix_h,fetchUnitBusy_1:-0,561318082550111;matrix_h,fetchUnitStalled_1:0,800532783729656;matrix_h,fetchSize_1:0,533240538014736;matrix_h,cacheHit_1:0,491193905993706;matrix_h,fastPath_1:0,799420745602293;samples,extechWatt:0,963739175864495;samples,completionTime:0,578176432830068;samples,gpuBusy_1:0,731159540109973;samples,waveFronts_1:0,799427078157704;samples,AluBusy_1:0,788037465679097;samples,aluPacking_1:-0,47148593509686;samples,fetchUnitBusy_1:-0,561318082550111;samples,fetchUnitStalled_1:0,800532783729656;samples,fetchSize_1:0,533240538014736;samples,cacheHit_1:0,491193905993706;samples,fastPath_1:0,799420745602293;extechWatt,completionTime:0,414909043687382;extechWatt,gpuBusy_1:0,570530212558276;extechWatt,waveFronts_1:0,665064482873792;extechWatt,AluBusy_1:0,687289959505926;extechWatt,fetchUnitBusy_1:-0,403431942777473;extechWatt,fetchUnitStalled_1:0,666708785054802;extechWatt,fastPath_1:0,665056663009938;completionTime,gpuBusy_1:0,873666700545642;completionTime,aluInsts_1:-Infinito;completionTime,fetchInsts_1:-Infinito;completionTime,waveFronts_1:0,834882184643219;completionTime,AluBusy_1:0,808955381673882;completionTime,aluPacking_1:-0,851547894509959;completionTime,fetchUnitBusy_1:-0,876465349630044;completionTime,fetchUnitStalled_1:0,834326947769048;completionTime,fetchSize_1:0,752599446930665;completionTime,cacheHit_1:0,6433013255207;completionTime,fastPath_1:0,834901841040318;gpuBusy_1,waveFronts_1:0,983075048447501;gpuBusy_1,AluBusy_1:0,938533365180848;gpuBusy_1,aluPacking_1:-0,865338783617462;gpuBusy_1,fetchUnitBusy_1:-0,915520224811478;gpuBusy_1,fetchUnitStalled_1:0,982903208254856;gpuBusy_1,fetchSize_1:0,90958360397053;gpuBusy_1,cacheHit_1:0,830374550177301;gpuBusy_1,fastPath_1:0,983085435034241;waveFronts_1,AluBusy_1:0,92792144451987;waveFronts_1,aluPacking_1:-0,796819654051814;waveFronts_1,fetchUnitBusy_1:-0,858040164459979;waveFronts_1,fetchUnitStalled_1:0,999995813390758;waveFronts_1,fetchSize_1:0,83983158023368;waveFronts_1,cacheHit_1:0,754789980263749;waveFronts_1,fastPath_1:0,999999995496652;AluBusy_1,aluPacking_1:-0,79471391234193;AluBusy_1,fetchUnitBusy_1:-0,869679186228113;AluBusy_1,fetchUnitStalled_1:0,928665230916781;AluBusy_1,fetchSize_1:0,898028752135542;AluBusy_1,cacheHit_1:0,872526353487271;AluBusy_1,fastPath_1:0,927952052666589;aluPacking_1,fetchUnitBusy_1:0,990691027452917;aluPacking_1,fetchUnitStalled_1:-0,796255343281824;aluPacking_1,fetchSize_1:-0,820769127191561;aluPacking_1,cacheHit_1:-0,733198718102134;aluPacking_1,fastPath_1:-0,796852091260893;fetchUnitBusy_1,fetchUnitStalled_1:-0,857734598249374;fetchUnitBusy_1,fetchSize_1:-0,868348476534256;fetchUnitBusy_1,cacheHit_1:-0,790078016220465;fetchUnitBusy_1,fastPath_1:-0,858072646606514;fetchUnitStalled_1,fetchSize_1:0,839832528403984;fetchUnitStalled_1,cacheHit_1:0,755205589721904;fetchUnitStalled_1,fastPath_1:0,999995903995972;fetchSize_1,cacheHit_1:0,980027833676925;fetchSize_1,fastPath_1:0,839863775938109;cacheHit_1,fastPath_1:0,754831195929661;
matrix_w,matrix_h:0,900594602159211;matrix_w,samples:0,900594602159211;matrix_w,extechWatt:0,903134391451544;matrix_w,completionTime:0,751902717817039;matrix_w,gpuBusy_1:0,907888362181171;matrix_w,waveFronts_1:0,907288132944874;matrix_w,AluBusy_1:0,601630322802859;matrix_w,aluPacking_1:0,685626266954235;matrix_w,fetchUnitBusy_1:0,961648863943228;matrix_w,fetchUnitStalled_1:0,908169443937943;matrix_w,fetchSize_1:0,580347426263845;matrix_w,cacheHit_1:0,456881487655885;matrix_w,fastPath_1:0,907285626192091;matrix_h,samples:1;matrix_h,extechWatt:0,967637635468639;matrix_h,completionTime:0,773514965014779;matrix_h,gpuBusy_1:0,847661988151305;matrix_h,waveFronts_1:0,853396133157395;matrix_h,AluBusy_1:0,540987556344934;matrix_h,aluPacking_1:0,630166568817821;matrix_h,fetchUnitBusy_1:0,954535774263364;matrix_h,fetchUnitStalled_1:0,854485382269487;matrix_h,fetchSize_1:0,521449367921772;matrix_h,cacheHit_1:0,413777844884279;matrix_h,fastPath_1:0,853393680125045;filter_size,completionTime:-Infinito;samples,extechWatt:0,967637635468639;samples,completionTime:0,773514965014779;samples,gpuBusy_1:0,847661988151305;samples,waveFronts_1:0,853396133157395;samples,AluBusy_1:0,540987556344934;samples,aluPacking_1:0,630166568817821;samples,fetchUnitBusy_1:0,954535774263364;samples,fetchUnitStalled_1:0,854485382269487;samples,fetchSize_1:0,521449367921772;samples,cacheHit_1:0,413777844884279;samples,fastPath_1:0,853393680125045;extechWatt,completionTime:0,633877707330806;extechWatt,gpuBusy_1:0,749833871877877;extechWatt,waveFronts_1:0,754982217319901;extechWatt,AluBusy_1:0,404116561492898;extechWatt,aluPacking_1:0,504375614435872;extechWatt,fetchUnitBusy_1:0,953670271316878;extechWatt,fetchUnitStalled_1:0,756654216987148;extechWatt,fastPath_1:0,754981452403322;completionTime,gpuBusy_1:0,892383109662;completionTime,fetchInsts_1:+Infinito;completionTime,waveFronts_1:0,883527462071494;completionTime,AluBusy_1:0,583515450016983;completionTime,aluFetchRatio_1:+Infinito;completionTime,aluPacking_1:0,641127936524795;completionTime,fetchUnitBusy_1:0,769013177698102;completionTime,fetchUnitStalled_1:0,882629290474122;completionTime,fetchSize_1:0,602809786819322;completionTime,fastPath_1:0,883517054762023;gpuBusy_1,waveFronts_1:0,998599684345777;gpuBusy_1,AluBusy_1:0,788504408704284;gpuBusy_1,aluPacking_1:0,842767041238225;gpuBusy_1,fetchUnitBusy_1:0,857527962802863;gpuBusy_1,fetchUnitStalled_1:0,998539688353585;gpuBusy_1,fetchSize_1:0,80713841577914;gpuBusy_1,cacheHit_1:0,655355687197511;gpuBusy_1,fastPath_1:0,998598198389926;waveFronts_1,AluBusy_1:0,791080347501938;waveFronts_1,aluPacking_1:0,844864421104997;waveFronts_1,fetchUnitBusy_1:0,854596500123875;waveFronts_1,fetchUnitStalled_1:0,999994846575761;waveFronts_1,fetchSize_1:0,812163787029117;waveFronts_1,cacheHit_1:0,665244439876486;waveFronts_1,fastPath_1:0,999999998506575;AluBusy_1,aluPacking_1:0,993136586800219;AluBusy_1,fetchUnitBusy_1:0,530060856784208;AluBusy_1,fetchUnitStalled_1:0,790561991176293;AluBusy_1,fetchSize_1:0,959892456274398;AluBusy_1,cacheHit_1:0,92110197213702;AluBusy_1,fastPath_1:0,791073226214126;aluPacking_1,fetchUnitBusy_1:0,625521297375933;aluPacking_1,fetchUnitStalled_1:0,844526231423959;aluPacking_1,fetchSize_1:0,949770349446276;aluPacking_1,cacheHit_1:0,89696193776416;aluPacking_1,fastPath_1:0,844856605358183;fetchUnitBusy_1,fetchUnitStalled_1:0,855527173331222;fetchUnitBusy_1,fetchSize_1:0,483991979234304;fetchUnitBusy_1,fastPath_1:0,854586842748209;fetchUnitStalled_1,fetchSize_1:0,811734297756343;fetchUnitStalled_1,cacheHit_1:0,665322649178464;fetchUnitStalled_1,fastPath_1:0,999994907426261;fetchSize_1,cacheHit_1:0,957790491267196;fetchSize_1,fastPath_1:0,812164896480958;cacheHit_1,fastPath_1:0,665250388083733;
matrix_w,matrix_h:0,900594602159211;matrix_w,samples:0,900594602159211;matrix_w,extechWatt:0,749873182466825;matrix_w,completionTime:0,759153071744934;matrix_w,gpuBusy_2:0,873226634368547;matrix_w,waveFronts_2:0,427811085224888;matrix_w,aluPacking_2:0,42667059249988;matrix_w,fetchUnitBusy_2:0,751093469217324;matrix_w,fetchUnitStalled_2:0,531836785069978;matrix_w,fetchSize_2:-0,457970812732875;matrix_w,cacheHit_2:0,780799260180064;matrix_w,fastPath_2:0,427811085224888;matrix_h,samples:1;matrix_h,extechWatt:0,909585508132434;matrix_h,completionTime:0,672824099259363;matrix_h,gpuBusy_2:0,915147944690252;matrix_h,waveFronts_2:0,426203109031622;matrix_h,fetchUnitBusy_2:0,446732098185272;matrix_h,fetchUnitStalled_2:0,53415109024081;matrix_h,fetchSize_2:-0,416471421637751;matrix_h,cacheHit_2:0,49595005512951;matrix_h,fastPath_2:0,426203109031622;filter_size,completionTime:-Infinito;samples,extechWatt:0,909585508132434;samples,completionTime:0,672824099259363;samples,gpuBusy_2:0,915147944690252;samples,waveFronts_2:0,426203109031622;samples,fetchUnitBusy_2:0,446732098185272;samples,fetchUnitStalled_2:0,53415109024081;samples,fetchSize_2:-0,416471421637751;samples,cacheHit_2:0,49595005512951;samples,fastPath_2:0,426203109031622;extechWatt,gpuBusy_2:0,713732343556314;extechWatt,fetchUnitStalled_2:0,460157636162491;extechWatt,fetchSize_2:-0,517513174717926;completionTime,gpuBusy_2:0,866873624207935;completionTime,aluInsts_2:-Infinito;completionTime,waveFronts_2:0,709507352830902;completionTime,AluBusy_2:0,783195032289633;completionTime,aluPacking_2:-Infinito;completionTime,aluPacking_2:0,812452111557172;completionTime,fetchUnitBusy_2:0,563531657857127;completionTime,fetchUnitStalled_2:0,734691427850498;completionTime,cacheHit_2:0,478908615260019;completionTime,fastPath_2:0,709507352830902;completionTime,pathUtil_2:-Infinito;gpuBusy_2,waveFronts_2:0,610142358497059;gpuBusy_2,AluBusy_2:0,567680833019226;gpuBusy_2,aluPacking_2:0,594319115177702;gpuBusy_2,fetchUnitBusy_2:0,456865818158676;gpuBusy_2,fetchUnitStalled_2:0,681352125774576;gpuBusy_2,cacheHit_2:0,434598877290527;gpuBusy_2,fastPath_2:0,610142358497059;fetchInsts_2,wrInsts_2:0,999999999999985;fetchInsts_2,aluFetchRatio_2:-0,66559091026487;wrInsts_2,aluFetchRatio_2:-0,665590860513472;wrInsts_2,aluPacking_2:-Infinito;wrInsts_2,pathUtil_2:-Infinito;waveFronts_2,AluBusy_2:0,657674340576704;waveFronts_2,aluPacking_2:0,632422069580766;waveFronts_2,fetchUnitStalled_2:0,990497585977205;waveFronts_2,fastPath_2:1;AluBusy_2,aluPacking_2:0,99438863056191;AluBusy_2,fetchUnitStalled_2:0,615432185957184;AluBusy_2,fetchSize_2:0,597279008778797;AluBusy_2,fastPath_2:0,657674340576704;aluPacking_2,fetchUnitBusy_2:0,434466007981608;aluPacking_2,fetchUnitStalled_2:0,599603691521424;aluPacking_2,fetchSize_2:0,520793917592793;aluPacking_2,fastPath_2:0,632422069580766;fetchUnitBusy_2,fetchSize_2:-0,449806599838259;fetchUnitBusy_2,cacheHit_2:0,972361440397718;fetchUnitStalled_2,fastPath_2:0,990497585977205;fetchSize_2,cacheHit_2:-0,572205256030398;
matrix_w,matrix_h:0,900594602159211;matrix_w,samples:0,900594602159211;matrix_w,extechWatt:0,903509660744296;matrix_w,completionTime:0,891218101613188;matrix_w,gpuBusy_2:0,911792712968544;matrix_w,waveFronts_2:0,503235843137969;matrix_w,fetchUnitBusy_2:0,953412708352225;matrix_w,fetchUnitStalled_2:0,561909438097855;matrix_w,fetchSize_2:-0,460422884060352;matrix_w,cacheHit_2:0,914275417880737;matrix_w,fastPath_2:0,503557387236579;matrix_h,samples:1;matrix_h,extechWatt:0,967380683826237;matrix_h,completionTime:0,846487284362182;matrix_h,gpuBusy_2:0,845834602655642;matrix_h,aluFetchRatio_2:-0,403467374039064;matrix_h,fetchUnitBusy_2:0,906180549192036;matrix_h,fetchUnitStalled_2:0,41774549447843;matrix_h,fetchSize_2:-0,419155864634776;matrix_h,cacheHit_2:0,848757316979139;samples,extechWatt:0,967380683826237;samples,completionTime:0,846487284362182;samples,gpuBusy_2:0,845834602655642;samples,aluFetchRatio_2:-0,403467374039064;samples,fetchUnitBusy_2:0,906180549192036;samples,fetchUnitStalled_2:0,41774549447843;samples,fetchSize_2:-0,419155864634776;samples,cacheHit_2:0,848757316979139;extechWatt,completionTime:0,744234935526578;extechWatt,gpuBusy_2:0,747620717096283;extechWatt,fetchUnitBusy_2:0,857974118402982;extechWatt,fetchSize_2:-0,572731026915581;extechWatt,cacheHit_2:0,776420889347463;completionTime,gpuBusy_2:0,9847026317195;completionTime,waveFronts_2:0,715594175773268;completionTime,aluPacking_2:0,611028614308177;completionTime,fetchUnitBusy_2:0,919004315126261;completionTime,fetchUnitStalled_2:0,745367377007183;completionTime,cacheHit_2:0,911655188077524;completionTime,fastPath_2:0,715775410067012;gpuBusy_2,waveFronts_2:0,737331834947505;gpuBusy_2,aluPacking_2:0,592828455513364;gpuBusy_2,fetchUnitBusy_2:0,932823509916317;gpuBusy_2,fetchUnitStalled_2:0,769011115183544;gpuBusy_2,cacheHit_2:0,952318141079626;gpuBusy_2,fastPath_2:0,737518743979311;fetchInsts_2,wrInsts_2:0,999999999999963;fetchInsts_2,aluFetchRatio_2:-0,786442611928031;wrInsts_2,aluFetchRatio_2:-0,786442559492607;waveFronts_2,AluBusy_2:0,41275784862767;waveFronts_2,aluPacking_2:0,561116903987934;waveFronts_2,fetchUnitBusy_2:0,604043119074896;waveFronts_2,fetchUnitStalled_2:0,995755365401772;waveFronts_2,cacheHit_2:0,676900103479933;waveFronts_2,fastPath_2:0,999999873431619;AluBusy_2,aluPacking_2:0,957970632024466;AluBusy_2,fetchSize_2:0,739306564110596;AluBusy_2,fastPath_2:0,412638780902932;aluPacking_2,fetchUnitStalled_2:0,549316076146296;aluPacking_2,fetchSize_2:0,570540915204004;aluPacking_2,fastPath_2:0,561088095039386;fetchUnitBusy_2,fetchUnitStalled_2:0,656147378096541;fetchUnitBusy_2,fetchSize_2:-0,42739062513533;fetchUnitBusy_2,cacheHit_2:0,955147464909612;fetchUnitBusy_2,fastPath_2:0,604331416893207;fetchUnitStalled_2,cacheHit_2:0,716815327285544;fetchUnitStalled_2,fastPath_2:0,995801280884166;cacheHit_2,fastPath_2:0,677118832523134;
matrix_w,matrix_h:0,900594602159211;matrix_w,samples:0,900594602159211;matrix_w,extechWatt:0,867299271493967;matrix_w,completionTime:0,941318440518006;matrix_w,gpuBusy_2:0,834125448279683;matrix_w,waveFronts_2:0,62264959972214;matrix_w,aluPacking_2:0,640656737528176;matrix_w,fetchUnitBusy_2:0,978472206452164;matrix_w,fetchUnitStalled_2:0,682977777411966;matrix_w,fetchSize_2:-0,463580100006614;matrix_w,cacheHit_2:0,926464719870984;matrix_w,fastPath_2:0,622703826600144;matrix_h,samples:1;matrix_h,extechWatt:0,960367165006092;matrix_h,completionTime:0,871049664517449;matrix_h,gpuBusy_2:0,761860634532012;matrix_h,waveFronts_2:0,54309732585256;matrix_h,aluFetchRatio_2:-0,457708135599712;matrix_h,aluPacking_2:0,579028149848436;matrix_h,fetchUnitBusy_2:0,916933061396622;matrix_h,fetchUnitStalled_2:0,590137907189114;matrix_h,fetchSize_2:-0,421733992873133;matrix_h,cacheHit_2:0,89078050665822;matrix_h,fastPath_2:0,543150674330621;filter_size,completionTime:-Infinito;samples,extechWatt:0,960367165006092;samples,completionTime:0,871049664517449;samples,gpuBusy_2:0,761860634532012;samples,waveFronts_2:0,54309732585256;samples,aluFetchRatio_2:-0,457708135599712;samples,aluPacking_2:0,579028149848436;samples,fetchUnitBusy_2:0,916933061396622;samples,fetchUnitStalled_2:0,590137907189114;samples,fetchSize_2:-0,421733992873133;samples,cacheHit_2:0,89078050665822;samples,fastPath_2:0,543150674330621;extechWatt,completionTime:0,749295917227449;extechWatt,gpuBusy_2:0,604399775831374;extechWatt,aluInsts_2:-Infinito;extechWatt,aluPacking_2:0,430937804416322;extechWatt,fetchUnitBusy_2:0,870248645562507;extechWatt,fetchUnitStalled_2:0,406377294002708;extechWatt,fetchSize_2:-0,559705251026037;extechWatt,cacheHit_2:0,787598197016901;completionTime,gpuBusy_2:0,942858260305856;completionTime,aluInsts_2:-Infinito;completionTime,waveFronts_2:0,75216473239376;completionTime,AluBusy_2:0,545446562020569;completionTime,aluFetchRatio_2:-0,424171640330817;completionTime,aluPacking_2:-Infinito;completionTime,aluPacking_2:0,763450842648944;completionTime,fetchUnitBusy_2:0,935305683544463;completionTime,fetchUnitStalled_2:0,794376681607344;completionTime,cacheHit_2:0,955698868092486;completionTime,fastPath_2:0,752203818927743;completionTime,pathUtil_2:-Infinito;gpuBusy_2,waveFronts_2:0,745443899751149;gpuBusy_2,AluBusy_2:0,762290655820538;gpuBusy_2,aluFetchRatio_2:-0,482369220178846;gpuBusy_2,aluPacking_2:0,906084353672056;gpuBusy_2,fetchUnitBusy_2:0,787890644447367;gpuBusy_2,fetchUnitStalled_2:0,771453032283694;gpuBusy_2,cacheHit_2:0,827357940860971;gpuBusy_2,fastPath_2:0,745470297011173;gpuBusy_2,pathUtil_2:-Infinito;fetchInsts_2,wrInsts_2:0,999999999999986;fetchInsts_2,aluFetchRatio_2:-0,770282671001587;wrInsts_2,aluFetchRatio_2:-0,770282619095412;waveFronts_2,AluBusy_2:0,451017332513308;waveFronts_2,aluPacking_2:+Infinito;waveFronts_2,aluPacking_2:0,595665047515875;waveFronts_2,fetchUnitBusy_2:0,659574148653579;waveFronts_2,fetchUnitStalled_2:0,99603863833397;waveFronts_2,cacheHit_2:0,79369448206611;waveFronts_2,fastPath_2:0,999999997381194;waveFronts_2,pathUtil_2:+Infinito;AluBusy_2,aluPacking_2:0,954684317052898;AluBusy_2,fetchUnitStalled_2:0,442279105318502;AluBusy_2,fetchSize_2:0,608889539220556;AluBusy_2,fastPath_2:0,451015376128047;aluPacking_2,fetchUnitBusy_2:0,551640288066014;aluPacking_2,fetchUnitStalled_2:0,606442413418801;aluPacking_2,cacheHit_2:0,590673482603318;aluPacking_2,fastPath_2:0,595679869611876;fetchUnitBusy_2,fetchUnitStalled_2:0,718663236846584;fetchUnitBusy_2,fetchSize_2:-0,532144625327004;fetchUnitBusy_2,cacheHit_2:0,964015400697311;fetchUnitBusy_2,fastPath_2:0,659627382712504;fetchUnitStalled_2,cacheHit_2:0,834553827363582;fetchUnitStalled_2,fastPath_2:0,996044585778641;fetchSize_2,cacheHit_2:-0,401130686252125;cacheHit_2,fastPath_2:0,79373406188898;
matrix_w,matrix_h:0,900594602159211;matrix_w,samples:0,900594602159211;matrix_w,extechWatt:0,906667335848689;matrix_w,completionTime:0,854306164200419;matrix_w,gpuBusy_1:0,648035975160926;matrix_w,waveFronts_1:0,865449912802918;matrix_w,aluPacking_1:0,528446240474727;matrix_w,fetchUnitBusy_1:0,736584116562616;matrix_w,fetchUnitStalled_1:0,865175804348271;matrix_w,fetchSize_1:0,664171998057454;matrix_w,fastPath_1:0,865449912802918;matrix_w,gpuBusy_2:0,864252489839911;matrix_w,waveFronts_2:0,790015493851892;matrix_w,AluBusy_2:0,510780024897704;matrix_w,aluPacking_2:0,561135181480909;matrix_w,fetchUnitBusy_2:0,929734838367283;matrix_w,fetchUnitStalled_2:0,821426553636592;matrix_w,fetchSize_2:-0,416618534549181;matrix_w,cacheHit_2:0,664836206393036;matrix_w,fastPath_2:0,790015493851892;matrix_h,samples:1;matrix_h,extechWatt:0,96876406780394;matrix_h,completionTime:0,858179697443873;matrix_h,gpuBusy_1:0,84788545055397;matrix_h,waveFronts_1:0,824856358219907;matrix_h,fetchUnitBusy_1:0,476215718830187;matrix_h,fetchUnitStalled_1:0,824902559899251;matrix_h,fetchSize_1:0,60437077491531;matrix_h,fastPath_1:0,824856358219907;matrix_h,gpuBusy_2:0,93159955606628;matrix_h,waveFronts_2:0,879075422835015;matrix_h,aluPacking_2:0,414710433677515;matrix_h,fetchUnitBusy_2:0,881996090081412;matrix_h,fetchUnitStalled_2:0,900632872860992;matrix_h,fastPath_2:0,879075422835015;filter_size,completionTime:-Infinito;samples,extechWatt:0,96876406780394;samples,completionTime:0,858179697443873;samples,gpuBusy_1:0,84788545055397;samples,waveFronts_1:0,824856358219907;samples,fetchUnitBusy_1:0,476215718830187;samples,fetchUnitStalled_1:0,824902559899251;samples,fetchSize_1:0,60437077491531;samples,fastPath_1:0,824856358219907;samples,gpuBusy_2:0,93159955606628;samples,waveFronts_2:0,879075422835015;samples,aluPacking_2:0,414710433677515;samples,fetchUnitBusy_2:0,881996090081412;samples,fetchUnitStalled_2:0,900632872860992;samples,fastPath_2:0,879075422835015;n_device,completionTime:-Infinito;extechWatt,completionTime:0,782423471718601;extechWatt,gpuBusy_1:0,896790269514868;extechWatt,aluInsts_1:+Infinito;extechWatt,fetchInsts_1:+Infinito;extechWatt,waveFronts_1:0,714930107849987;extechWatt,aluFetchRatio_1:+Infinito;extechWatt,fetchUnitBusy_1:0,413741895092807;extechWatt,fetchUnitStalled_1:0,715086249614655;extechWatt,fetchSize_1:0,476325452914761;extechWatt,fastPath_1:0,714930107849987;extechWatt,gpuBusy_2:0,875340679128676;extechWatt,aluInsts_2:+Infinito;extechWatt,waveFronts_2:0,869694631087989;extechWatt,fetchUnitBusy_2:0,852039520700199;extechWatt,fetchUnitStalled_2:0,906604939681531;extechWatt,fetchSize_2:-0,531433241657614;extechWatt,fastPath_2:0,869694631087989;completionTime,gpuBusy_1:0,584408198008077;completionTime,waveFronts_1:0,876217772859149;completionTime,AluBusy_1:0,45512314540629;completionTime,aluPacking_1:-Infinito;completionTime,aluPacking_1:0,570365651071534;completionTime,fetchUnitBusy_1:0,670776091660195;completionTime,fetchUnitStalled_1:0,876209017367653;completionTime,fetchSize_1:0,732242386087864;completionTime,fastPath_1:0,876217772859149;completionTime,gpuBusy_2:0,870169576734286;completionTime,waveFronts_2:0,641500811613441;completionTime,AluBusy_2:0,582336646211495;completionTime,aluPacking_2:-Infinito;completionTime,aluPacking_2:0,626360341047279;completionTime,fetchUnitBusy_2:0,878568938121665;completionTime,fetchUnitStalled_2:0,659248308158254;completionTime,fastPath_2:0,641500811613441;gpuBusy_1,waveFronts_1:0,461518665234014;gpuBusy_1,fetchUnitStalled_1:0,462490979254077;gpuBusy_1,fastPath_1:0,461518665234014;gpuBusy_1,gpuBusy_2:0,785438834053378;gpuBusy_1,waveFronts_2:0,773566287222073;gpuBusy_1,fetchUnitBusy_2:0,564958438417854;gpuBusy_1,fetchUnitStalled_2:0,807969103087793;gpuBusy_1,fetchSize_2:-0,442303266885222;gpuBusy_1,fastPath_2:0,773566287222073;waveFronts_1,AluBusy_1:0,702256922990182;waveFronts_1,aluPacking_1:0,766980107128843;waveFronts_1,fetchUnitBusy_1:0,741181321620284;waveFronts_1,fetchUnitStalled_1:0,999994708284496;waveFronts_1,fetchSize_1:0,884391963367614;waveFronts_1,fastPath_1:1;waveFronts_1,gpuBusy_2:0,884726748448269;waveFronts_1,waveFronts_2:0,734365180105279;waveFronts_1,AluBusy_2:0,811181001273617;waveFronts_1,aluPacking_2:0,842520553625182;waveFronts_1,fetchUnitBusy_2:0,812052018630977;waveFronts_1,fetchUnitStalled_2:0,727331891587991;waveFronts_1,cacheHit_2:0,477211147492765;waveFronts_1,fastPath_2:0,734365180105279;AluBusy_1,aluPacking_1:0,964096130292303;AluBusy_1,fetchUnitBusy_1:0,721629527995989;AluBusy_1,fetchUnitStalled_1:0,701768187129072;AluBusy_1,fetchSize_1:0,768508854895023;AluBusy_1,fastPath_1:0,702256922990182;AluBusy_1,AluBusy_2:0,947397677413828;AluBusy_1,aluPacking_2:0,939769852313633;AluBusy_1,fetchSize_2:0,469107996322776;AluBusy_1,cacheHit_2:0,425885041860174;aluFetchRatio_1,cacheHit_1:-Infinito;aluPacking_1,fetchUnitBusy_1:0,879554121941153;aluPacking_1,fetchUnitStalled_1:0,766035712475995;aluPacking_1,fetchSize_1:0,764134375567024;aluPacking_1,fastPath_1:0,766980107128843;aluPacking_1,gpuBusy_2:0,425811828039476;aluPacking_1,AluBusy_2:0,918152865353183;aluPacking_1,aluPacking_2:0,925300645819118;aluPacking_1,fetchUnitBusy_2:0,533761256830927;aluPacking_1,cacheHit_2:0,612386638234949;fetchUnitBusy_1,fetchUnitStalled_1:0,739598134155793;fetchUnitBusy_1,fetchSize_1:0,615004916392701;fetchUnitBusy_1,fastPath_1:0,741181321620284;fetchUnitBusy_1,pathUtil_1:+Infinito;fetchUnitBusy_1,gpuBusy_2:0,477090479518857;fetchUnitBusy_1,AluBusy_2:0,696231525901942;fetchUnitBusy_1,aluPacking_2:+Infinito;fetchUnitBusy_1,aluPacking_2:0,728496308353593;fetchUnitBusy_1,fetchUnitBusy_2:0,772989285547307;fetchUnitBusy_1,cacheHit_2:0,834948431586866;fetchUnitBusy_1,pathUtil_2:+Infinito;fetchUnitStalled_1,fetchSize_1:0,885064346017031;fetchUnitStalled_1,fastPath_1:0,999994708284496;fetchUnitStalled_1,gpuBusy_2:0,885418747524712;fetchUnitStalled_1,waveFronts_2:0,734892086618868;fetchUnitStalled_1,AluBusy_2:0,811430347530159;fetchUnitStalled_1,aluPacking_2:0,842691361149553;fetchUnitStalled_1,fetchUnitBusy_2:0,811081518892583;fetchUnitStalled_1,fetchUnitStalled_2:0,727824174028155;fetchUnitStalled_1,cacheHit_2:0,47583549431101;fetchUnitStalled_1,fastPath_2:0,734892086618868;fetchSize_1,fastPath_1:0,88439196336757;fetchSize_1,gpuBusy_2:0,763572725832519;fetchSize_1,aluInsts_2:-Infinito;fetchSize_1,waveFronts_2:0,542378551876336;fetchSize_1,AluBusy_2:0,917682909488231;fetchSize_1,aluFetchRatio_2:-0,474720257658679;fetchSize_1,aluPacking_2:0,928676109382557;fetchSize_1,fetchUnitBusy_2:0,582981805050093;fetchSize_1,fetchUnitStalled_2:0,524095708958032;fetchSize_1,fastPath_2:0,542378551876336;cacheHit_1,pathUtil_1:+Infinito;cacheHit_1,fetchInsts_2:0,447724566286836;cacheHit_1,wrInsts_2:0,447724540005889;cacheHit_1,aluPacking_2:+Infinito;cacheHit_1,fetchUnitBusy_2:-0,474134413314979;cacheHit_1,fetchSize_2:0,734798208285963;cacheHit_1,pathUtil_2:+Infinito;fastPath_1,gpuBusy_2:0,884726748448269;fastPath_1,waveFronts_2:0,734365180105279;fastPath_1,AluBusy_2:0,811181001273617;fastPath_1,aluPacking_2:0,842520553625182;fastPath_1,fetchUnitBusy_2:0,812052018630977;fastPath_1,fetchUnitStalled_2:0,727331891587991;fastPath_1,cacheHit_2:0,477211147492765;fastPath_1,fastPath_2:0,734365180105279;gpuBusy_2,waveFronts_2:0,792279678633243;gpuBusy_2,AluBusy_2:0,555428901094463;gpuBusy_2,aluPacking_2:0,59277543013555;gpuBusy_2,fetchUnitBusy_2:0,771568837511708;gpuBusy_2,fetchUnitStalled_2:0,80666840174548;gpuBusy_2,fastPath_2:0,792279678633243;fetchInsts_2,wrInsts_2:0,999999999999999;fetchInsts_2,aluFetchRatio_2:-0,622463457896027;wrInsts_2,aluFetchRatio_2:-0,622463456193499;waveFronts_2,fetchUnitBusy_2:0,697289102137538;waveFronts_2,fetchUnitStalled_2:0,995874343474079;waveFronts_2,fastPath_2:1;AluBusy_2,aluFetchRatio_2:-0,413449014967533;AluBusy_2,aluPacking_2:0,997860827816952;AluBusy_2,fetchUnitBusy_2:0,44352999512799;AluBusy_2,fetchSize_2:0,464235925694069;AluBusy_2,cacheHit_2:0,429999948532818;aluFetchRatio_2,aluPacking_2:-Infinito;aluFetchRatio_2,aluPacking_2:-0,404330938626674;aluFetchRatio_2,pathUtil_2:-Infinito;aluPacking_2,fetchUnitBusy_2:0,50117138115009;aluPacking_2,fetchSize_2:0,416107807168979;aluPacking_2,cacheHit_2:0,461320772110156;fetchUnitBusy_2,fetchUnitStalled_2:0,727778039047664;fetchUnitBusy_2,fetchSize_2:-0,439703102558199;fetchUnitBusy_2,cacheHit_2:0,632956828962021;fetchUnitBusy_2,fastPath_2:0,697289102137538;fetchUnitStalled_2,fastPath_2:0,995874343474079;cacheHit_2,pathUtil_2:-Infinito;
matrix_w,matrix_h:0,900594602159211;matrix_w,samples:0,900594602159211;matrix_w,extechWatt:0,904699254942079;matrix_w,completionTime:0,858738142975645;matrix_w,gpuBusy_1:0,871185959380256;matrix_w,waveFronts_1:0,890117952802029;matrix_w,AluBusy_1:0,750044967633832;matrix_w,aluPacking_1:-0,566308830582081;matrix_w,fetchUnitBusy_1:-0,629696195921022;matrix_w,fetchUnitStalled_1:0,889941732348833;matrix_w,fetchSize_1:0,661147203379412;matrix_w,cacheHit_1:0,59794644881034;matrix_w,fastPath_1:0,890077708212933;matrix_w,gpuBusy_2:0,904507657589101;matrix_w,waveFronts_2:0,847585641190519;matrix_w,fetchUnitBusy_2:0,960890926693333;matrix_w,fetchUnitStalled_2:0,887024919554133;matrix_w,fetchSize_2:-0,415411041009075;matrix_w,cacheHit_2:0,80305618725212;matrix_w,fastPath_2:0,84775186712075;matrix_h,samples:1;matrix_h,extechWatt:0,966855022115311;matrix_h,completionTime:0,856157277239448;matrix_h,gpuBusy_1:0,817693323225301;matrix_h,waveFronts_1:0,846372997719686;matrix_h,AluBusy_1:0,689350179412471;matrix_h,aluPacking_1:-0,526298957376929;matrix_h,fetchUnitBusy_1:-0,583863469442135;matrix_h,fetchUnitStalled_1:0,846599865376389;matrix_h,fetchSize_1:0,600259878406337;matrix_h,cacheHit_1:0,54000423558076;matrix_h,fastPath_1:0,846323569018544;matrix_h,gpuBusy_2:0,843461673144461;matrix_h,waveFronts_2:0,691284595463035;matrix_h,fetchUnitBusy_2:0,88527605822772;matrix_h,fetchUnitStalled_2:0,722607587481041;matrix_h,cacheHit_2:0,734820769743396;matrix_h,fastPath_2:0,691421310751361;samples,extechWatt:0,966855022115311;samples,completionTime:0,856157277239448;samples,gpuBusy_1:0,817693323225301;samples,waveFronts_1:0,846372997719686;samples,AluBusy_1:0,689350179412471;samples,aluPacking_1:-0,526298957376929;samples,fetchUnitBusy_1:-0,583863469442135;samples,fetchUnitStalled_1:0,846599865376389;samples,fetchSize_1:0,600259878406337;samples,cacheHit_1:0,54000423558076;samples,fastPath_1:0,846323569018544;samples,gpuBusy_2:0,843461673144461;samples,waveFronts_2:0,691284595463035;samples,fetchUnitBusy_2:0,88527605822772;samples,fetchUnitStalled_2:0,722607587481041;samples,cacheHit_2:0,734820769743396;samples,fastPath_2:0,691421310751361;extechWatt,completionTime:0,747632860950781;extechWatt,gpuBusy_1:0,705438014156031;extechWatt,waveFronts_1:0,739661187876651;extechWatt,AluBusy_1:0,562585582139105;extechWatt,aluPacking_1:-0,432703934690605;extechWatt,fetchUnitBusy_1:-0,480616705032657;extechWatt,fetchUnitStalled_1:0,739977558361983;extechWatt,fetchSize_1:0,462116754837985;extechWatt,cacheHit_1:0,406594763467026;extechWatt,fastPath_1:0,739594591564906;extechWatt,gpuBusy_2:0,741495128982658;extechWatt,waveFronts_2:0,632790722559451;extechWatt,fetchUnitBusy_2:0,901414110070261;extechWatt,fetchUnitStalled_2:0,682401860891097;extechWatt,fetchSize_2:-0,53943740085504;extechWatt,cacheHit_2:0,614871576531244;extechWatt,fastPath_2:0,632990491967345;completionTime,gpuBusy_1:0,958716020681591;completionTime,waveFronts_1:0,968070800024287;completionTime,AluBusy_1:0,837511972231094;completionTime,aluFetchRatio_1:+Infinito;completionTime,aluPacking_1:+Infinito;completionTime,aluPacking_1:-0,743545767442572;completionTime,fetchUnitBusy_1:-0,805400353322926;completionTime,fetchUnitStalled_1:0,967916839683232;completionTime,fetchSize_1:0,807155856647262;completionTime,cacheHit_1:0,739580592530967;completionTime,fastPath_1:0,968062469054601;completionTime,gpuBusy_2:0,957735000091111;completionTime,waveFronts_2:0,8120491395593;completionTime,aluPacking_2:+Infinito;completionTime,fetchUnitBusy_2:0,805486508822903;completionTime,fetchUnitStalled_2:0,818574073404195;completionTime,cacheHit_2:0,898580643521671;completionTime,fastPath_2:0,812097522059977;gpuBusy_1,waveFronts_1:0,997469507617068;gpuBusy_1,AluBusy_1:0,934697499942999;gpuBusy_1,aluPacking_1:-0,711912973823824;gpuBusy_1,fetchUnitBusy_1:-0,787417305351684;gpuBusy_1,fetchUnitStalled_1:0,997534787888739;gpuBusy_1,fetchSize_1:0,892310416325224;gpuBusy_1,cacheHit_1:0,844930452372696;gpuBusy_1,fastPath_1:0,997475855222472;gpuBusy_1,gpuBusy_2:0,992934725809861;gpuBusy_1,waveFronts_2:0,828896778715077;gpuBusy_1,AluBusy_2:0,414288656409903;gpuBusy_1,aluPacking_2:0,486568583962648;gpuBusy_1,fetchUnitBusy_2:0,800111912920988;gpuBusy_1,fetchUnitStalled_2:0,831371704458967;gpuBusy_1,cacheHit_2:0,970578363595246;gpuBusy_1,fastPath_2:0,828929232947717;waveFronts_1,AluBusy_1:0,918545556773587;waveFronts_1,aluPacking_1:-0,714309018577781;waveFronts_1,fetchUnitBusy_1:-0,788143862598684;waveFronts_1,fetchUnitStalled_1:0,999995215615926;waveFronts_1,fetchSize_1:0,871442676916379;waveFronts_1,cacheHit_1:0,817904276985261;waveFronts_1,fastPath_1:0,999999993276133;waveFronts_1,gpuBusy_2:0,995042141595619;waveFronts_1,waveFronts_2:0,832974020476475;waveFronts_1,aluPacking_2:0,444547473521932;waveFronts_1,fetchUnitBusy_2:0,818673295948352;waveFronts_1,fetchUnitStalled_2:0,839413700145932;waveFronts_1,cacheHit_2:0,958149812123472;waveFronts_1,fastPath_2:0,833022377525936;AluBusy_1,aluPacking_1:-0,472210977937922;AluBusy_1,fetchUnitBusy_1:-0,571526696964462;AluBusy_1,fetchUnitStalled_1:0,919079619030073;AluBusy_1,fetchSize_1:0,980775493584062;AluBusy_1,cacheHit_1:0,959880570816202;AluBusy_1,fastPath_1:0,918561573956041;AluBusy_1,gpuBusy_2:0,910801998915822;AluBusy_1,waveFronts_2:0,748691398208524;AluBusy_1,AluBusy_2:0,629702038862009;AluBusy_1,aluPacking_2:0,69245979204218;AluBusy_1,fetchUnitBusy_2:0,726660339252289;AluBusy_1,fetchUnitStalled_2:0,740577359601092;AluBusy_1,cacheHit_2:0,955304842310806;AluBusy_1,fastPath_2:0,748683404011771;aluFetchRatio_1,cacheHit_1:-Infinito;aluFetchRatio_1,wrInsts_2:-Infinito;aluPacking_1,fetchUnitBusy_1:0,993041046370992;aluPacking_1,fetchUnitStalled_1:-0,713938978231393;aluPacking_1,fetchSize_1:-0,457239217787318;aluPacking_1,cacheHit_1:-0,417022573514448;aluPacking_1,fastPath_1:-0,714336537851904;aluPacking_1,gpuBusy_2:-0,702500577702427;aluPacking_1,waveFronts_2:-0,542251932148391;aluPacking_1,fetchUnitStalled_2:-0,540114233140922;aluPacking_1,cacheHit_2:-0,676791008500262;aluPacking_1,fastPath_2:-0,542262163410174;fetchUnitBusy_1,fetchUnitStalled_1:-0,787855135864915;fetchUnitBusy_1,fetchSize_1:-0,554221112849099;fetchUnitBusy_1,cacheHit_1:-0,512250927926671;fetchUnitBusy_1,fastPath_1:-0,788171283836651;fetchUnitBusy_1,gpuBusy_2:-0,775984496695152;fetchUnitBusy_1,waveFronts_2:-0,607474066910273;fetchUnitBusy_1,fetchUnitBusy_2:-0,469598855694262;fetchUnitBusy_1,fetchUnitStalled_2:-0,604644105068119;fetchUnitBusy_1,cacheHit_2:-0,755040687739005;fetchUnitBusy_1,fastPath_2:-0,607483218466688;fetchUnitStalled_1,fetchSize_1:0,87219090925103;fetchUnitStalled_1,cacheHit_1:0,818973429441414;fetchUnitStalled_1,fastPath_1:0,999995224015284;fetchUnitStalled_1,pathUtil_1:-Infinito;fetchUnitStalled_1,gpuBusy_2:0,994856905550736;fetchUnitStalled_1,waveFronts_2:0,831955678566861;fetchUnitStalled_1,aluPacking_2:-Infinito;fetchUnitStalled_1,aluPacking_2:0,446415313905757;fetchUnitStalled_1,fetchUnitBusy_2:0,818632745604557;fetchUnitStalled_1,fetchUnitStalled_2:0,838436651092868;fetchUnitStalled_1,cacheHit_2:0,958557242971587;fetchUnitStalled_1,fastPath_2:0,832004162902574;fetchUnitStalled_1,pathUtil_2:-Infinito;fetchSize_1,cacheHit_1:0,989928234198322;fetchSize_1,fastPath_1:0,871465904923848;fetchSize_1,gpuBusy_2:0,854111723702297;fetchSize_1,waveFronts_2:0,673245945491932;fetchSize_1,AluBusy_2:0,738112179371395;fetchSize_1,aluPacking_2:0,791878765221507;fetchSize_1,fetchUnitBusy_2:0,646195931754587;fetchSize_1,fetchUnitStalled_2:0,661483264921339;fetchSize_1,cacheHit_2:0,938188825826178;fetchSize_1,fastPath_2:0,67322581582215;cacheHit_1,fastPath_1:0,817932065623806;cacheHit_1,pathUtil_1:+Infinito;cacheHit_1,gpuBusy_2:0,796724785789428;cacheHit_1,waveFronts_2:0,591225722786066;cacheHit_1,AluBusy_2:0,808405936873013;cacheHit_1,aluPacking_2:+Infinito;cacheHit_1,aluPacking_2:0,855930239976775;cacheHit_1,fetchUnitBusy_2:0,590214129283682;cacheHit_1,fetchUnitStalled_2:0,578921284127619;cacheHit_1,fetchSize_2:0,456913692663069;cacheHit_1,cacheHit_2:0,913848659288285;cacheHit_1,fastPath_2:0,591202119335998;cacheHit_1,pathUtil_2:+Infinito;fastPath_1,gpuBusy_2:0,99504208532023;fastPath_1,waveFronts_2:0,832967900560318;fastPath_1,aluPacking_2:0,4445932629024;fastPath_1,fetchUnitBusy_2:0,818618156968426;fastPath_1,fetchUnitStalled_2:0,839398742021806;fastPath_1,cacheHit_2:0,958167660071403;fastPath_1,fastPath_2:0,833016223465259;gpuBusy_2,waveFronts_2:0,872027423528665;gpuBusy_2,aluPacking_2:+Infinito;gpuBusy_2,fetchUnitBusy_2:0,836018901508851;gpuBusy_2,fetchUnitStalled_2:0,876729634701617;gpuBusy_2,cacheHit_2:0,954974033414228;gpuBusy_2,fastPath_2:0,872068839349129;gpuBusy_2,pathUtil_2:+Infinito;fetchInsts_2,wrInsts_2:0,999999999999998;waveFronts_2,fetchUnitBusy_2:0,830365516354966;waveFronts_2,fetchUnitStalled_2:0,995072994470523;waveFronts_2,cacheHit_2:0,798757942718282;waveFronts_2,fastPath_2:0,999999927845974;AluBusy_2,aluFetchRatio_2:0,499001375256049;AluBusy_2,aluPacking_2:0,995388093734784;AluBusy_2,fetchSize_2:0,793761401729472;AluBusy_2,cacheHit_2:0,535822143815683;aluFetchRatio_2,aluPacking_2:0,488458607354504;aluFetchRatio_2,fetchSize_2:0,455371431835673;aluPacking_2,fetchSize_2:0,747147246768653;aluPacking_2,cacheHit_2:0,601795757185438;fetchUnitBusy_2,fetchUnitStalled_2:0,869894792805313;fetchUnitBusy_2,cacheHit_2:0,748480129898974;fetchUnitBusy_2,fastPath_2:0,830532435604965;fetchUnitStalled_2,cacheHit_2:0,792689734717458;fetchUnitStalled_2,fastPath_2:0,995110315277343;cacheHit_2,fastPath_2:0,798760667483124;
matrix_w,matrix_h:0,900594602159211;matrix_w,samples:0,900594602159211;matrix_w,extechWatt:0,911787706847707;matrix_w,completionTime:0,896213635683543;matrix_w,gpuBusy_1:0,921864326443259;matrix_w,waveFronts_1:0,897694596808;matrix_w,AluBusy_1:0,550614975384888;matrix_w,aluPacking_1:0,655962332948412;matrix_w,fetchUnitBusy_1:0,933203336671586;matrix_w,fetchUnitStalled_1:0,897700033284533;matrix_w,fetchSize_1:0,663995609482697;matrix_w,cacheHit_1:0,535450483001908;matrix_w,fastPath_1:0,897707689609026;matrix_w,gpuBusy_2:0,786310961466417;matrix_w,waveFronts_2:0,672790757999295;matrix_w,AluBusy_2:0,469204974914036;matrix_w,aluPacking_2:0,679105207486665;matrix_w,fetchUnitBusy_2:0,94627720184415;matrix_w,fetchUnitStalled_2:0,733922498901642;matrix_w,fetchSize_2:-0,419949256519182;matrix_w,cacheHit_2:0,935981796192914;matrix_w,fastPath_2:0,672861007308656;matrix_h,samples:1;matrix_h,extechWatt:0,965446034978234;matrix_h,completionTime:0,928858251979454;matrix_h,gpuBusy_1:0,889900404458704;matrix_h,waveFronts_1:0,86053497572139;matrix_h,AluBusy_1:0,459994019458037;matrix_h,aluPacking_1:0,536587325857909;matrix_h,fetchUnitBusy_1:0,721223690515911;matrix_h,fetchUnitStalled_1:0,860875922204751;matrix_h,fetchSize_1:0,603109746864424;matrix_h,cacheHit_1:0,485650600847546;matrix_h,fastPath_1:0,860551257389707;matrix_h,gpuBusy_2:0,727138893376307;matrix_h,waveFronts_2:0,722989666534826;matrix_h,aluPacking_2:0,621865040488766;matrix_h,fetchUnitBusy_2:0,957877214862074;matrix_h,fetchUnitStalled_2:0,785478792479821;matrix_h,cacheHit_2:0,857194609664235;matrix_h,fastPath_2:0,723062529624918;samples,extechWatt:0,965446034978234;samples,completionTime:0,928858251979454;samples,gpuBusy_1:0,889900404458704;samples,waveFronts_1:0,86053497572139;samples,AluBusy_1:0,459994019458037;samples,aluPacking_1:0,536587325857909;samples,fetchUnitBusy_1:0,721223690515911;samples,fetchUnitStalled_1:0,860875922204751;samples,fetchSize_1:0,603109746864424;samples,cacheHit_1:0,485650600847546;samples,fastPath_1:0,860551257389707;samples,gpuBusy_2:0,727138893376307;samples,waveFronts_2:0,722989666534826;samples,aluPacking_2:0,621865040488766;samples,fetchUnitBusy_2:0,957877214862074;samples,fetchUnitStalled_2:0,785478792479821;samples,cacheHit_2:0,857194609664235;samples,fastPath_2:0,723062529624918;extechWatt,completionTime:0,883432315567569;extechWatt,gpuBusy_1:0,800212530904416;extechWatt,aluInsts_1:+Infinito;extechWatt,fetchInsts_1:+Infinito;extechWatt,waveFronts_1:0,758619877375563;extechWatt,aluFetchRatio_1:+Infinito;extechWatt,aluPacking_1:0,4550514651211;extechWatt,fetchUnitBusy_1:0,76522150302815;extechWatt,fetchUnitStalled_1:0,759024752516989;extechWatt,fetchSize_1:0,475128249529834;extechWatt,fastPath_1:0,758643655465583;extechWatt,gpuBusy_2:0,598428345921283;extechWatt,aluInsts_2:+Infinito;extechWatt,waveFronts_2:0,570166088237805;extechWatt,aluPacking_2:0,50033986167723;extechWatt,fetchUnitBusy_2:0,953510198349563;extechWatt,fetchUnitStalled_2:0,650511176627892;extechWatt,fetchSize_2:-0,541027701312841;extechWatt,cacheHit_2:0,830393337801873;extechWatt,fastPath_2:0,57025711396634;completionTime,gpuBusy_1:0,909123197861858;completionTime,aluInsts_1:-Infinito;completionTime,fetchInsts_1:-Infinito;completionTime,waveFronts_1:0,894649669786982;completionTime,AluBusy_1:0,446242954269446;completionTime,aluFetchRatio_1:-Infinito;completionTime,aluPacking_1:0,529057183158439;completionTime,fetchUnitBusy_1:0,752367327918206;completionTime,fetchUnitStalled_1:0,894635863671273;completionTime,fetchSize_1:0,563157354462496;completionTime,cacheHit_1:0,424768933327718;completionTime,fastPath_1:0,89465812354584;completionTime,pathUtil_1:-Infinito;completionTime,gpuBusy_2:0,762606310617529;completionTime,aluInsts_2:-Infinito;completionTime,waveFronts_2:0,847120688039514;completionTime,aluPacking_2:0,581083185296997;completionTime,fetchUnitBusy_2:0,96604989965088;completionTime,fetchUnitStalled_2:0,893629599263942;completionTime,fetchSize_2:-0,400286336475696;completionTime,cacheHit_2:0,94825967509164;completionTime,fastPath_2:0,84717499307299;completionTime,pathUtil_2:-Infinito;gpuBusy_1,aluInsts_1:-Infinito;gpuBusy_1,fetchInsts_1:-Infinito;gpuBusy_1,waveFronts_1:0,996262248654343;gpuBusy_1,AluBusy_1:0,650324158430566;gpuBusy_1,aluFetchRatio_1:-Infinito;gpuBusy_1,aluPacking_1:-Infinito;gpuBusy_1,aluPacking_1:0,724686195127141;gpuBusy_1,fetchUnitBusy_1:0,802969345164533;gpuBusy_1,fetchUnitStalled_1:0,996236230241299;gpuBusy_1,fetchSize_1:0,812346014153991;gpuBusy_1,cacheHit_1:0,69115475677412;gpuBusy_1,fastPath_1:0,996264391261143;gpuBusy_1,pathUtil_1:-Infinito;gpuBusy_1,gpuBusy_2:0,9410561313727;gpuBusy_1,aluInsts_2:-Infinito;gpuBusy_1,waveFronts_2:0,858332213244417;gpuBusy_1,AluBusy_2:0,653137977001309;gpuBusy_1,aluPacking_2:-Infinito;gpuBusy_1,aluPacking_2:0,822026098201806;gpuBusy_1,fetchUnitBusy_2:0,886980335511942;gpuBusy_1,fetchUnitStalled_2:0,888834943865301;gpuBusy_1,cacheHit_2:0,910742225290794;gpuBusy_1,fastPath_2:0,858371004411451;gpuBusy_1,pathUtil_2:-Infinito;waveFronts_1,AluBusy_1:0,683906058235976;waveFronts_1,aluPacking_1:0,751275599372469;waveFronts_1,fetchUnitBusy_1:0,778120769562278;waveFronts_1,fetchUnitStalled_1:0,9999969698733;waveFronts_1,fetchSize_1:0,839754509669971;waveFronts_1,cacheHit_1:0,724927032409612;waveFronts_1,fastPath_1:0,999999998765843;waveFronts_1,gpuBusy_2:0,961025924926375;waveFronts_1,waveFronts_2:0,886801035070391;waveFronts_1,AluBusy_2:0,692497493922427;waveFronts_1,aluFetchRatio_2:0,413621190094654;waveFronts_1,aluPacking_2:0,848113609375807;waveFronts_1,fetchUnitBusy_2:0,858589365953095;waveFronts_1,fetchUnitStalled_2:0,910063823395451;waveFronts_1,cacheHit_2:0,89706448912291;waveFronts_1,fastPath_2:0,886832340480997;AluBusy_1,aluPacking_1:0,989046251792297;AluBusy_1,fetchUnitBusy_1:0,459082683963492;AluBusy_1,fetchUnitStalled_1:0,684603630039842;AluBusy_1,fetchSize_1:0,912509742790376;AluBusy_1,cacheHit_1:0,923887521944415;AluBusy_1,fastPath_1:0,683899069530422;AluBusy_1,gpuBusy_2:0,759197017620696;AluBusy_1,waveFronts_2:0,61797517059199;AluBusy_1,AluBusy_2:0,87507609891807;AluBusy_1,aluPacking_2:0,89211670512678;AluBusy_1,fetchUnitBusy_2:0,457257508861408;AluBusy_1,fetchUnitStalled_2:0,61349694014685;AluBusy_1,fetchSize_2:0,438065401995108;AluBusy_1,cacheHit_2:0,529083650447556;AluBusy_1,fastPath_2:0,61797529941244;aluFetchRatio_1,aluFetchRatio_2:+Infinito;aluPacking_1,fetchUnitBusy_1:0,585104829365574;aluPacking_1,fetchUnitStalled_1:0,751796566324283;aluPacking_1,fetchSize_1:0,921545136766751;aluPacking_1,cacheHit_1:0,907110557747211;aluPacking_1,fastPath_1:0,751269983318014;aluPacking_1,gpuBusy_2:0,799510073450501;aluPacking_1,waveFronts_2:0,646759358048359;aluPacking_1,AluBusy_2:0,855365480404292;aluPacking_1,aluPacking_2:0,902032304378265;aluPacking_1,fetchUnitBusy_2:0,551995434468315;aluPacking_1,fetchUnitStalled_2:0,651718202790615;aluPacking_1,cacheHit_2:0,627171788050561;aluPacking_1,fastPath_2:0,64676959927057;fetchUnitBusy_1,fetchUnitStalled_1:0,777451577029917;fetchUnitBusy_1,fetchSize_1:0,538721751657129;fetchUnitBusy_1,fastPath_1:0,7781258909866;fetchUnitBusy_1,gpuBusy_2:0,653098410899878;fetchUnitBusy_1,waveFronts_2:0,515342753467181;fetchUnitBusy_1,aluPacking_2:0,534856507049421;fetchUnitBusy_1,fetchUnitBusy_2:0,826466181472772;fetchUnitBusy_1,fetchUnitStalled_2:0,570519756705017;fetchUnitBusy_1,fetchSize_2:-0,507689330467907;fetchUnitBusy_1,cacheHit_2:0,880390819163602;fetchUnitBusy_1,fastPath_2:0,515404576051354;fetchUnitStalled_1,fetchSize_1:0,840377366573365;fetchUnitStalled_1,cacheHit_1:0,725922384235748;fetchUnitStalled_1,fastPath_1:0,999997048877364;fetchUnitStalled_1,gpuBusy_2:0,961293335261465;fetchUnitStalled_1,waveFronts_2:0,886832785259976;fetchUnitStalled_1,AluBusy_2:0,693363805318673;fetchUnitStalled_1,aluFetchRatio_2:0,4130587824804;fetchUnitStalled_1,aluPacking_2:0,848883323041918;fetchUnitStalled_1,fetchUnitBusy_2:0,85863505609284;fetchUnitStalled_1,fetchUnitStalled_2:0,910147810818575;fetchUnitStalled_1,cacheHit_2:0,896697677530897;fetchUnitStalled_1,fastPath_2:0,886864157705112;fetchSize_1,cacheHit_1:0,975771161782567;fetchSize_1,fastPath_1:0,839752159318276;fetchSize_1,gpuBusy_2:0,921302183608281;fetchSize_1,waveFronts_2:0,727230773379315;fetchSize_1,AluBusy_2:0,959846961989003;fetchSize_1,aluPacking_2:0,993751604554556;fetchSize_1,fetchUnitBusy_2:0,554559455252901;fetchSize_1,fetchUnitStalled_2:0,725448591674354;fetchSize_1,cacheHit_2:0,609365466175875;fetchSize_1,fastPath_2:0,727235849204463;cacheHit_1,fastPath_1:0,724926931526117;cacheHit_1,gpuBusy_2:0,84588677485721;cacheHit_1,waveFronts_2:0,633778213681645;cacheHit_1,AluBusy_2:0,984654163921158;cacheHit_1,aluPacking_2:0,976842408210013;cacheHit_1,fetchUnitBusy_2:0,419652019714131;cacheHit_1,fetchUnitStalled_2:0,625105374454482;cacheHit_1,fetchSize_2:0,521655284582658;cacheHit_1,cacheHit_2:0,462608301747904;cacheHit_1,fastPath_2:0,633775760819968;fastPath_1,gpuBusy_2:0,961023157645199;fastPath_1,waveFronts_2:0,886794107830787;fastPath_1,AluBusy_2:0,692493740224825;fastPath_1,aluFetchRatio_2:0,413598612607078;fastPath_1,aluPacking_2:0,84811461660891;fastPath_1,fetchUnitBusy_2:0,858604108746984;fastPath_1,fetchUnitStalled_2:0,910060586566693;fastPath_1,cacheHit_2:0,89706913096888;fastPath_1,fastPath_2:0,886825417260735;gpuBusy_2,waveFronts_2:0,859856707289589;gpuBusy_2,AluBusy_2:0,841965080859016;gpuBusy_2,aluFetchRatio_2:0,450139230890517;gpuBusy_2,aluPacking_2:0,933091872526477;gpuBusy_2,fetchUnitBusy_2:0,701144549208098;gpuBusy_2,fetchUnitStalled_2:0,864164656130842;gpuBusy_2,cacheHit_2:0,764047780028819;gpuBusy_2,fastPath_2:0,85986854177086;fetchInsts_2,wrInsts_2:0,999999999999973;fetchInsts_2,waveFronts_2:-0,422088962860591;fetchInsts_2,aluFetchRatio_2:-0,606287874547738;fetchInsts_2,fastPath_2:-0,422032935700963;wrInsts_2,waveFronts_2:-0,422088991622242;wrInsts_2,aluFetchRatio_2:-0,606287882926184;wrInsts_2,aluPacking_2:+Infinito;wrInsts_2,fastPath_2:-0,422032964460688;wrInsts_2,pathUtil_2:+Infinito;waveFronts_2,AluBusy_2:0,596042177790466;waveFronts_2,aluFetchRatio_2:0,707426437074251;waveFronts_2,aluPacking_2:0,729003034945918;waveFronts_2,fetchUnitBusy_2:0,735682201474374;waveFronts_2,fetchUnitStalled_2:0,994708030604277;waveFronts_2,cacheHit_2:0,801999283210995;waveFronts_2,fastPath_2:0,999999993762106;AluBusy_2,aluPacking_2:0,962572735107711;AluBusy_2,fetchUnitStalled_2:0,576616201500818;AluBusy_2,fetchSize_2:0,572162407486537;AluBusy_2,fastPath_2:0,596028484630658;aluFetchRatio_2,fetchUnitStalled_2:0,649281741475562;aluFetchRatio_2,cacheHit_2:0,414516986622042;aluFetchRatio_2,fastPath_2:0,707363119734659;aluPacking_2,fetchUnitBusy_2:0,567825824894989;aluPacking_2,fetchUnitStalled_2:0,730358551185336;aluPacking_2,cacheHit_2:0,610149759238211;aluPacking_2,fastPath_2:0,729011772041249;fetchUnitBusy_2,fetchUnitStalled_2:0,799212575940075;fetchUnitBusy_2,fetchSize_2:-0,477439064095935;fetchUnitBusy_2,cacheHit_2:0,954742095462073;fetchUnitBusy_2,fastPath_2:0,735754053115421;fetchUnitStalled_2,cacheHit_2:0,846043582602242;fetchUnitStalled_2,fastPath_2:0,99471945110404;cacheHit_2,fastPath_2:0,802049167077432;
